<?xml version="1.0" encoding="UTF-8" standalone="no"?>
<!-- Created with Inkscape (http://www.inkscape.org/) -->

<svg
   xmlns:dc="http://purl.org/dc/elements/1.1/"
   xmlns:cc="http://creativecommons.org/ns#"
   xmlns:rdf="http://www.w3.org/1999/02/22-rdf-syntax-ns#"
   xmlns:svg="http://www.w3.org/2000/svg"
   xmlns="http://www.w3.org/2000/svg"
   xmlns:sodipodi="http://sodipodi.sourceforge.net/DTD/sodipodi-0.dtd"
   xmlns:inkscape="http://www.inkscape.org/namespaces/inkscape"
   version="1.1"
   id="svg2"
   width="720"
   height="379.5"
   viewBox="0 0 720 379.5"
   sodipodi:docname="heiderlab-logo.svg"
   inkscape:version="0.92.3 (2405546, 2018-03-11)">
  <metadata
     id="metadata8">
    <rdf:RDF>
      <cc:Work
         rdf:about="">
        <dc:format>image/svg+xml</dc:format>
        <dc:type
           rdf:resource="http://purl.org/dc/dcmitype/StillImage" />
        <dc:title />
      </cc:Work>
    </rdf:RDF>
  </metadata>
  <defs
     id="defs6">
    <filter
       style="color-interpolation-filters:sRGB;"
       inkscape:label="Greyscale"
       id="filter11">
      <feColorMatrix
         values="0.21 0.72 0.072 0 0 0.21 0.72 0.072 0 0 0.21 0.72 0.072 0 0 0 0 0 1 0 "
         id="feColorMatrix9" />
    </filter>
  </defs>
  <sodipodi:namedview
     pagecolor="#ffffff"
     bordercolor="#666666"
     borderopacity="1"
     objecttolerance="10"
     gridtolerance="10"
     guidetolerance="10"
     inkscape:pageopacity="0"
     inkscape:pageshadow="2"
     inkscape:window-width="1920"
     inkscape:window-height="1052"
     id="namedview4"
     showgrid="false"
     inkscape:zoom="1.2437418"
     inkscape:cx="304.47929"
     inkscape:cy="134.37106"
     inkscape:window-x="0"
     inkscape:window-y="120"
     inkscape:window-maximized="1"
     inkscape:current-layer="svg2" />
  <g
     id="g12"
     transform="translate(3.0367594,2.0500408)"
     style="filter:url(#filter11)">
    <path
       style="fill:#576890;stroke-width:0.5"
       d="m 543,371.55713 c -4.49315,-1.45267 -7.05005,-3.01459 -10.3703,-6.33486 l -3.13985,-3.13981 -1.8699,-3.91623 -1.86995,-3.91623 -0.14095,-128.5 -0.14095,-128.5 0.548,-2.22373 c 0.95495,-3.875015 3.00235,-7.50941 6.08935,-10.80941 3.21495,-3.43678 6.5088,-5.554975 10.89455,-7.005995 l 2.75,-0.909835 4.5,0.04495 4.5,0.04495 2.96005,1.056855 c 7.7068,2.751635 13.0815,8.183635 15.8829,16.052195 l 1.15705,3.25 0.1362,124.5 0.1362,124.5 -0.49525,4.45827 -0.4952,4.45828 -1.752,3.68919 -1.752,3.68919 -2.78365,2.91835 -2.7836,2.91835 -3.03955,1.62005 c -4.1037,2.18725 -7.4004,2.99049 -12.17115,2.96549 l -4,-0.021 -2.75,-0.88909 z m 12.75,-3.64845 c 7.08765,-1.77176 13.27915,-8.65284 14.74615,-16.38851 L 571,348.86351 V 224.5 100.13649 l -0.50265,-2.693245 c -1.6237,-8.700105 -8.3773,-15.38289 -17.1862,-17.00599 L 550,79.82715 l -3.31115,0.610105 c -8.68805,1.600835 -15.1359,7.84691 -16.9531,16.42255 L 529.01735,100.25 V 224.5 348.75 l 0.7184,3.39019 c 0.9409,4.44037 2.81565,7.79047 6.09535,10.89227 5.41255,5.11898 12.25095,6.79305 19.9189,4.87622 z m 54.70275,-41.61051 C 603.4902,323.88425 597.89185,318.44351 594.7114,311 l -0.9614,-2.25 -0.1339,-83.25 -0.1339,-83.25 0.9881,-3.25 c 2.3892,-7.85819 8.58575,-14.08723 16.4213,-16.50738 L 614.10535,121.5 h 4.14465 4.14465 l 3.25265,1.00463 c 6.72595,2.07744 11.8176,6.73407 15.3028,13.99537 l 1.7999,3.75 0.1334,82.5 0.13335,82.5 -0.54065,2.60974 c -0.29735,1.43535 -1.2419,4.02285 -2.099,5.75 l -1.5584,3.14026 -3.28435,3.25669 c -5.3191,5.27431 -10.7405,7.52057 -18.0144,7.46398 l -3.76995,-0.0293 -3.29725,-1.14317 z m 16.74785,-4.97503 3.63995,-1.79896 2.36225,-2.52542 c 1.2992,-1.38899 3.07885,-4.03818 3.9547,-5.88709 l 1.5925,-3.36167 0.14825,-82 0.1483,-82 -0.8327,-3.13943 c -2.1174,-7.98301 -8.7038,-13.77877 -17.21635,-15.14967 l -3.06225,-0.49317 -3.0926,0.56072 c -4.1027,0.74385 -7.7286,2.51669 -10.8058,5.28338 l -2.52095,2.26656 -1.88295,3.8099 -1.88295,3.80991 v 83.7759 83.7759 l 1.3072,2.75 c 2.63775,5.54895 7.23175,9.73784 12.6119,11.49972 l 3.0809,1.00894 4.40535,-0.19329 4.4053,-0.19328 z M 215.01759,318.03287 214.5,317.06574 v -16.47165 -16.47165 l 0.75,-0.62244 0.75,-0.62245 0.73245,0.60789 0.73246,0.60788 0.14254,4.82834 0.14255,4.82834 h 8.5 8.5 l 0.14254,-4.82834 0.14254,-4.82834 0.73246,-0.60788 0.73246,-0.60789 0.75,0.62245 0.75,0.62245 V 301 317.87755 L 237.25,318.5 236.5,319.12245 235.75,318.5 235,317.87755 V 307.43878 297 h -8.75 -8.75 v 10.4 10.4 l -0.6,0.6 c -0.8384,0.8384 -1.28371,0.75155 -1.88241,-0.36713 z m 34.5,0 L 249,317.06574 v -16.49716 -16.49715 l 0.78571,-0.78572 0.78572,-0.78571 h 10.97998 10.97998 l 0.29024,0.75637 c 0.15964,0.416 0.0164,1.08632 -0.31829,1.48961 l -0.60853,0.73323 -9.8224,0.1354 L 252.25,285.75 v 4.5 4.5 l 9.08486,0.25 c 4.99667,0.1375 9.26371,0.42954 9.48232,0.64898 0.21859,0.21944 0.15633,0.78194 -0.13838,1.25 l -0.53582,0.85102 -8.94649,0.25 -8.94649,0.25 v 8.75 8.75 l 10.24374,0.25 10.24375,0.25 0.18045,0.94008 c 0.0993,0.51705 -0.12294,1.13236 -0.49375,1.36735 -0.3708,0.23499 -5.56002,0.4307 -11.5316,0.43491 L 250.03519,319 Z m 38.55549,0.51229 -0.58624,-0.36232 0.13158,-17.46642 L 287.75,283.25 h 1 1 l 0.13133,17.56907 0.13134,17.56908 -0.67668,0.25966 c -0.37217,0.14282 -0.94049,0.0966 -1.26291,-0.10265 z M 305.28572,318.21429 304.5,317.42857 V 300.56429 283.7 l 0.6,-0.6 0.6,-0.6 h 6.30925 6.30925 l 2.71188,0.80534 2.71189,0.80534 2.0713,2.07131 2.07131,2.07131 0.55477,1.99835 0.55478,1.99835 v 8.5 8.5 l -0.55478,1.99835 -0.55477,1.99835 -2.07131,2.07131 -2.0713,2.0713 -2.71189,0.80534 L 318.3185,319 h -6.12354 -6.12353 z M 321.94774,314.75 c 0.93375,-0.55 2.17125,-1.63525 2.75,-2.41167 L 325.75,310.92667 V 300.75 290.57333 l -1.05226,-1.41167 c -0.57875,-0.77641 -1.81625,-1.86166 -2.75,-2.41166 l -1.69774,-1 -6.375,-0.17521 -6.375,-0.17522 v 14.96688 c 0,8.23179 0.16875,15.13752 0.375,15.34608 0.20625,0.20857 3.075,0.30232 6.375,0.20834 l 6,-0.17087 z M 340.6,318.4 340,317.8 V 300.75 283.7 l 0.6,-0.6 0.6,-0.6 h 10.83878 10.83878 l 0.66735,0.8041 0.66735,0.80411 -0.9517,0.69589 -0.95169,0.6959 H 352.65443 343 v 4.75 4.75 h 8.93878 8.93878 l 0.53262,0.64177 0.53262,0.64177 -0.45208,0.73323 -0.45209,0.73323 -8.89432,0.25 -8.89431,0.25 -0.13653,8.875 -0.13655,8.875 h 9.95032 9.95031 l 0.62245,0.75 0.62245,0.75 -0.62245,0.75 -0.62245,0.75 H 352.03878 341.2 Z m 35.38323,0.09 -0.73323,-0.45276 -0.14409,-17.0694 -0.1441,-17.0694 0.58032,-0.69924 0.58032,-0.69924 7.31377,0.005 7.31378,0.005 2.52079,1.17383 c 2.89933,1.3501 4.0121,2.79953 4.81297,6.26908 l 0.56911,2.46551 -0.62793,2.24273 -0.62792,2.24273 -1.68229,1.63053 -1.68228,1.63053 1.7005,1.88226 c 2.20929,2.44541 2.76086,4.59379 2.76426,10.76681 l 0.003,5.06354 -0.75,0.62245 -0.75,0.62245 -0.75,-0.62245 -0.75,-0.62245 -0.002,-5.56377 -0.002,-5.56378 -0.92438,-1.51581 -0.92437,-1.5158 -1.94876,-0.80523 c -1.07155,-0.44288 -2.84849,-0.99827 -3.94849,-1.2342 l -2,-0.42896 v -0.99464 -0.99464 l 3.11658,-0.67189 3.11658,-0.6719 1.46971,-1.37291 1.46972,-1.37292 0.34373,-1.83226 c 0.18905,-1.00775 0.19495,-2.42508 0.0131,-3.14962 -0.48374,-1.92737 -2.82218,-4.02756 -5.19627,-4.66683 l -2.07486,-0.5587 -4.87915,0.14315 -4.87914,0.14316 -0.13176,16.31939 -0.13176,16.31938 -0.63501,0.52702 -0.63501,0.52701 z M 410.29572,318.22429 409.5,317.42857 V 300.52551 283.62244 L 410.25,283 l 0.75,-0.62245 0.74315,0.61676 0.74315,0.61676 0.13185,16.06946 0.13185,16.06947 9.5,0.27799 c 5.225,0.15289 9.5719,0.32164 9.65978,0.375 0.0879,0.0534 0.0879,0.60326 0,1.22201 l -0.15978,1.125 -10.32928,0.135 -10.32928,0.13501 z m 32.28433,0.15576 C 442.26102,318.06102 442,317.61903 442,317.39784 c 0,-1.02778 12.12524,-33.73044 12.73277,-34.34121 0.37933,-0.38136 1.01463,-0.56868 1.41179,-0.41628 l 0.72209,0.27709 2.12964,5.91628 c 7.55359,20.98436 9.99986,28.01324 10.00166,28.73778 0.003,1.13673 -1.31804,1.53698 -2.19107,0.66394 -0.39714,-0.39713 -1.10913,-1.90632 -1.58221,-3.35375 -0.47308,-1.44743 -1.17595,-3.25626 -1.56193,-4.01961 l -0.70178,-1.38792 -7.58996,0.13792 -7.58997,0.13792 -1.53012,4.16834 c -0.84157,2.29259 -1.88128,4.36486 -2.31047,4.60505 l -0.78034,0.4367 z m 19.14748,-12.34369 c 0.1576,-0.255 -0.18839,-1.66125 -0.76887,-3.125 -0.58047,-1.46375 -1.849,-4.91136 -2.81895,-7.66136 -1.74258,-4.9406 -2.37418,-6.1822 -2.88501,-5.67137 -0.48482,0.48482 -5.74338,15.16211 -5.74907,16.04637 L 449.5,306.5 h 5.97049 5.97049 z M 481.33902,318.26758 480.5,317.42857 V 300.56428 283.7 l 0.6,-0.6 0.6,-0.6 5.525,0.003 c 6.68167,0.004 8.74449,0.52053 11.30563,2.83436 l 1.95982,1.7706 0.5392,2.00244 0.5392,2.00243 -0.3313,1.96104 c -0.1822,1.07857 -0.8727,2.60446 -1.53443,3.39087 -1.5427,1.83339 -1.51536,2.13542 0.28981,3.20176 2.10892,1.24575 3.83437,3.6957 4.51777,6.41469 l 0.58585,2.33099 -0.778,2.6763 -0.77805,2.6763 -1.64525,1.59237 c -0.9049,0.87581 -2.54525,1.98297 -3.64525,2.46036 l -2,0.86799 -7.03598,0.21065 -7.03599,0.21066 -0.83901,-0.83902 z m 16.20734,-3.43009 2.20364,-1.16251 1.11675,-1.96249 c 1.3654,-2.3994 1.42755,-4.42498 0.2062,-6.72029 l -0.92705,-1.7422 -1.94492,-1.10426 c -1.0697,-0.60735 -3.14539,-1.25425 -4.61265,-1.43758 l -2.66773,-0.33331 -0.27867,-0.7262 c -0.37866,-0.98676 0.70684,-1.87178 3.13802,-2.55847 1.11646,-0.31535 2.54877,-1.12564 3.18291,-1.80064 l 1.15296,-1.22728 0.24085,-2.15613 0.24086,-2.15613 -1.13272,-1.43559 c -0.62299,-0.78958 -1.8752,-1.74583 -2.7827,-2.125 L 493.03212,285.5 H 488.26606 483.5 v 14.91667 c 0,8.20416 0.15,15.06666 0.33334,15.25 C 484.01666,315.85 486.68128,316 489.75469,316 h 5.58802 z M 166,299.94035 c -3.36052,-0.54104 -9.02045,-3.2498 -11.83917,-5.66605 -2.88783,-2.47551 -5.95892,-7.25066 -7.1562,-11.127 L 146,279.89466 V 152.28808 24.681501 l 0.79673,-2.715751 C 149.0276,14.36154 155.43531,7.8158705 162.92767,5.4875085 L 166.10533,4.5 h 4.10658 4.10659 l 2.71575,0.7927315 c 7.44914,2.174414 14.20592,8.8225015 16.51847,16.2527465 L 194.5,24.589095 V 152.24188 279.89466 l -0.98207,3.17767 c -1.22263,3.95608 -3.3335,7.32594 -6.55371,10.46252 l -2.48569,2.42113 -3.61426,1.76143 -3.61427,1.76144 -3.25,0.5068 c -3.67531,0.57311 -4.1765,0.57028 -8,-0.0453 z m 11.40709,-4.85769 c 5.55898,-2.11509 9.72547,-6.39111 12.20906,-12.53002 L 190.75,279.75 190.8808,154.01929 191.0116,28.28858 190.50568,25.51929 C 189.33967,19.136823 184.93595,13.261876 179.20183,10.438981 L 176.14308,8.93316 173.19654,8.52777 170.25,8.1223795 167.34698,8.527174 c -1.59666,0.222637 -4.29731,1.0572595 -6.00143,1.854717 l -3.09841,1.449921 -2.45767,2.457662 -2.45766,2.457661 -1.40555,3.003599 c -0.77305,1.651979 -1.63521,4.214585 -1.91591,5.694678 L 149.5,28.136489 V 152.22641 276.31634 l 0.54724,2.96683 c 1.4571,7.89957 7.27109,14.28955 14.96488,16.44745 l 2.73788,0.7679 3.5,-0.20245 3.5,-0.20244 z M 95.23236,256.76339 c -1.1097,-0.35075 -3.24087,-1.2576 -4.735935,-2.0152 l -2.71829,-1.37746 -3.05634,-3.06036 -3.05634,-3.06037 -1.555245,-3.2639 c -0.85539,-1.79515 -1.787115,-4.27015 -2.070505,-5.5 L 77.524445,236.25 77.512225,154.46575 77.5,72.6815 78.30576,69.96575 C 80.60909,62.202585 86.3561,55.71465 93.40182,52.923465 L 96.25,51.795145 h 5.75 5.75 l 2.86239,1.13363 c 6.20612,2.457905 11.95063,8.19346 14.48141,14.45884 L 126.25,70.25 l 0.1539,82.75 0.15389,82.75 -0.58126,2.75 c -0.31969,1.5125 -1.37334,4.26929 -2.34145,6.12619 l -1.7602,3.3762 -3.07965,2.8738 c -3.24844,3.03132 -7.20491,5.25293 -10.85256,6.09386 -2.99158,0.68968 -10.247775,0.57171 -12.71031,-0.20666 z m 9.92803,-3.24583 c 7.79938,-1.27735 14.03686,-6.6702 16.5271,-14.28912 l 0.82416,-2.52156 -0.13082,-82.97844 L 122.25,70.75 120.86143,67.784935 c -0.76372,-1.63079 -2.1612,-3.90796 -3.10552,-5.06038 C 114.32086,58.532535 107.71067,55.5 102.00812,55.5 h -2.902785 l -3.26282,1.00778 -3.26282,1.007785 -2.5877,1.94436 c -3.248785,2.44109 -6.13572,6.24806 -7.324865,9.65921 L 81.75,71.75 v 83.27596 83.27596 l 1.86736,3.77832 1.86736,3.77831 2.16419,1.99488 c 3.1014,2.85877 6.29974,4.5908 9.93393,5.37962 3.95907,0.85933 4.04743,0.86265 7.57755,0.28451 z M 231,256.55713 c -8.11959,-2.62513 -14.06865,-8.55305 -16.50738,-16.44874 L 213.5,236.89466 213.5122,153.57233 213.5244,70.25 214.0426,68 c 0.28501,-1.2375 1.2264,-3.688765 2.09198,-5.447255 l 1.57379,-3.197255 3.07067,-3.11635 3.07066,-3.11635 3.21403,-1.533915 c 4.00398,-1.910923 6.76816,-2.560997 10.95617,-2.576652 3.88061,-0.0145 8.0123,0.982087 11.61345,2.801242 l 2.6166,1.3218 3.32229,3.37543 3.32228,3.37543 1.50018,3.18194 c 0.82509,1.750065 1.74881,4.37426 2.05271,5.831545 L 263,71.54922 v 81.65715 81.65714 l -0.49939,2.69324 c -0.27467,1.48129 -1.28496,4.29517 -2.24509,6.25305 l -1.7457,3.55981 -3.4465,3.25125 -3.4465,3.25125 -2.7393,1.2959 c -3.71684,1.75835 -6.39516,2.31023 -11.12752,2.29288 l -4,-0.0147 -2.75,-0.8891 z m 117.81378,0.38774 c -1.06492,-0.25008 -3.4683,-1.25977 -5.34085,-2.24377 l -3.40462,-1.78908 -2.79813,-2.93354 -2.79813,-2.93355 -1.86103,-3.89747 -1.86102,-3.89746 -0.13384,-84.75 -0.13385,-84.75 1.0035,-3.31002 c 5.16856,-17.048415 26.40954,-23.090757 39.78475,-11.31742 3.02017,2.65846 6.05691,7.403045 7.24363,11.31742 l 1.00349,3.31002 -0.13384,84.75 -0.13384,84.75 -1.86102,3.89746 -1.86103,3.89747 -2.78363,2.91835 -2.78364,2.91835 -3.03953,1.62006 c -1.67175,0.89103 -4.19416,1.92749 -5.60535,2.30325 -2.86203,0.76207 -9.53465,0.83676 -12.50202,0.13993 z m 68.53546,0.007 c -3.50047,-0.82378 -7.40584,-3.03941 -10.56277,-5.99256 l -3.13048,-2.92841 -1.63887,-3.07483 c -0.90138,-1.69116 -1.9463,-4.22944 -2.32206,-5.64063 l -0.68319,-2.56579 -0.006,-83.57233 -0.006,-83.572335 0.99262,-3.21373 c 2.62102,-8.485885 9.89034,-15.154615 18.45834,-16.933325 l 2.76595,-0.574209 3.76654,0.237666 3.76655,0.237665 2.81635,1.011843 c 7.96555,2.861815 14.36015,10.33173 15.92982,18.60858 L 448,71.63649 v 81.90714 81.90715 l -0.55254,2.64961 c -1.78974,8.58235 -8.39021,15.7974 -16.83907,18.40699 l -3.21373,0.99262 -4.07233,-0.0502 c -2.23978,-0.0276 -4.92767,-0.25151 -5.97309,-0.49754 z m 55.59748,-3.13942 c -4.07065,-1.43698 -6.9012,-3.3519 -10.346,-6.99924 l -2.64927,-2.80505 -1.47301,-3.14775 c -0.81015,-1.73127 -1.7235,-4.48944 -2.02964,-6.12927 l -0.55664,-2.98151 0.24428,-7 0.24429,-7 1.00796,-2.80307 c 1.36772,-3.80355 3.27157,-6.69994 6.4345,-9.78899 l 2.65406,-2.59207 3.63638,-1.77625 3.63637,-1.77624 3.53318,-0.53095 3.53318,-0.53095 3.27664,0.52344 c 6.40574,1.02332 10.48757,3.14895 14.79708,7.70562 2.75777,2.91594 4.57107,6.12915 5.80417,10.28521 l 0.80575,2.71575 v 7.60659 7.60658 l -0.9926,3.21373 c -2.4802,8.02988 -8.73444,14.14142 -16.97315,16.58584 L 484.8185,255 l -4.28425,-0.0105 -4.28425,-0.0105 -3.30329,-1.1661 z m 205.95213,0.22178 c -4.0104,-1.28227 -7.01255,-3.16355 -10.17265,-6.37455 l -2.7257,-2.76958 -1.7397,-3.57023 -1.73965,-3.57024 -0.5068,-3.25 c -0.27875,-1.7875 -0.5068,-5.275 -0.5068,-7.75 0,-2.475 0.22805,-5.9625 0.5068,-7.75 l 0.5068,-3.25 1.82695,-3.75 1.82695,-3.75 2.88325,-2.88576 2.8832,-2.88575 3.65425,-1.72446 3.65425,-1.72445 3.5332,-0.53905 3.53315,-0.53905 3.46685,0.54551 c 9.19775,1.44729 17.01855,8.1348 19.71215,16.85571 l 1.00465,3.25264 v 8.2131 8.21311 l -1.0389,3.10923 c -2.52615,7.5603 -9.0094,13.90133 -16.42685,16.06649 L 690.3185,255 l -4.28425,-0.0269 -4.28425,-0.0269 -2.85115,-0.91163 z m 14.7269,-4.28015 c 5.4686,-2.16559 9.3969,-6.1237 11.7893,-11.87869 l 1.29935,-3.12576 -0.0145,-8 -0.0145,-8 -1.1014,-2.80264 c -2.4252,-6.17113 -7.06995,-10.83622 -12.70945,-12.76504 l -2.62425,-0.89755 -4.25,0.0193 -4.25,0.0193 -2.75,1.08478 c -5.63215,2.22167 -10.05615,6.7686 -12.10605,12.44248 l -1.04755,2.89941 -0.23305,5.82591 -0.2331,5.82591 0.586,3.36512 c 0.7469,4.28903 2.97265,8.69826 5.83635,11.56197 l 2.2467,2.2467 3.20785,1.50114 c 5.64115,2.63981 10.86745,2.85619 16.3686,0.6777 z M 29.029398,180.2485 c -4.640124,-1.04412 -8.166297,-2.94306 -11.831271,-6.37147 l -3.213741,-3.00629 -2.117193,-4.27165 -2.117193,-4.27163 -0.174471,-8.3656 -0.174471,-8.3656 0.843569,-2.90177 c 1.336005,-4.5957 3.149831,-7.68154 6.461985,-10.99369 l 3.077339,-3.07734 2.983024,-1.49283 c 1.640664,-0.82105 4.192393,-1.77802 5.67051,-2.12659 l 2.687486,-0.63376 4.714738,0.24661 4.714738,0.24661 4.158145,2.06045 4.158146,2.06044 3.006297,3.21374 c 3.559935,3.80558 5.339775,7.21597 6.42637,12.31369 l 0.796805,3.73818 -0.259125,6.25 -0.25912,6.25 -1.00573,2.85081 C 54.07186,173.5342 45.91831,179.89131 35.638626,180.70499 L 32.25,180.97321 Z m 9.070991,-3.80647 c 3.950153,-0.83184 7.794145,-2.89105 10.567883,-5.66116 l 2.472363,-2.46912 1.41933,-3.03305 C 54.347195,161.45948 55,158.04067 55,152.5 c 0,-8.22597 -1.66964,-13.12453 -6.053214,-17.75951 l -2.607327,-2.75686 -3.044729,-1.47065 c -1.674602,-0.80886 -4.45098,-1.71507 -6.16973,-2.01382 L 34,127.956 l -3.125,0.54316 c -1.71875,0.29875 -4.513632,1.21407 -6.210848,2.03407 l -3.085847,1.49089 -2.503396,2.73911 c -4.255746,4.65646 -6.067355,9.95236 -6.067355,17.73677 0,7.88482 1.825828,13.29765 5.959978,17.66891 5.178937,5.47596 12.116627,7.75063 19.132857,6.27312 z m 254.663751,4.02475 c -5.51961,-0.9228 -10.66605,-3.79239 -14.55113,-8.11354 -2.81179,-3.12738 -4.48467,-6.33535 -5.45919,-10.46866 l -0.73904,-3.13458 -0.007,-6.35039 c -0.009,-7.32064 0.52879,-10.44222 2.52756,-14.68423 2.75058,-5.83759 8.48163,-10.75372 14.81775,-12.71075 L 292.60534,124 l 3.82233,0.0122 c 7.05014,0.0226 11.81046,1.87386 16.78586,6.52809 l 3.13048,2.92842 1.63887,3.07483 c 0.90138,1.69115 1.9463,4.22944 2.32206,5.64063 l 0.68319,2.5658 -0.006,7.5 c -0.007,8.46997 -0.3833,10.66041 -2.60659,15.17718 l -1.5639,3.17717 -2.84694,2.89148 -2.84694,2.89149 -3.68374,1.79577 -3.68373,1.79577 -3.25,0.50679 c -3.64901,0.56902 -4.22795,0.56761 -7.73586,-0.0188 z"
       id="path16"
       inkscape:connector-curvature="0" />
    <path
       style="fill:#23396e;stroke-width:0.5"
       d="m 546.25,371.461 -3,-0.44558 -3.6575,-1.80109 -3.6575,-1.80109 -2.67415,-2.67411 -2.6741,-2.67411 -1.7867,-3.65751 -1.78665,-3.65751 -0.5196,-3.5 -0.51955,-3.5 0.1379,-125.5 0.13785,-125.5 1.15515,-3.25 c 4.5353,-12.759775 17.8542,-19.297405 30.4708,-14.956675 6.89825,2.373345 11.6247,7.111345 14.67085,14.706675 l 1.2032,3 0.1403,126 0.1403,126 -0.55615,3.34934 -0.55615,3.34934 -1.66165,3.46729 -1.66165,3.46729 -2.68655,2.68338 c -5.5319,5.52541 -13.02925,8.02751 -20.65845,6.89436 z m 13.02895,-3.93776 3.47105,-1.70861 2.5323,-2.53232 2.53235,-2.53231 1.71765,-3.48949 1.7177,-3.48949 V 224.48458 95.198135 l -1.8796,-3.80309 -1.8796,-3.803095 -2.74655,-2.510215 C 561.4286,82.05144 557.82435,80.26884 553.3437,79.443245 L 550,78.82715 l -3.3437,0.616095 c -1.839,0.338855 -4.59525,1.20641 -6.125,1.927905 l -2.7813,1.31181 -2.8892,2.882715 -2.8892,2.88271 -1.6108,3.40081 L 528.75,95.25 V 224.5 353.75 l 1.16015,2.5 c 2.68125,5.77769 7.32915,10.12894 13.08985,12.25437 l 2.75,1.01461 5.02895,-0.14356 5.02895,-0.14357 z m 51.9341,-41.9592 c -3.71185,-1.2668 -7.1241,-3.41234 -10.0022,-6.28912 l -2.5391,-2.53797 -1.9609,-3.9674 -1.96085,-3.96739 -0.14825,-83.02608 -0.1482,-83.02608 0.83265,-3.13943 c 1.6086,-6.06509 6.977,-12.3846 12.85215,-15.12923 l 3.11165,-1.45365 3.53925,-0.49988 3.5392,-0.49987 3.02705,0.48749 c 8.6366,1.39089 14.764,5.99898 18.59535,13.98457 l 1.79915,3.75 0.1359,82.5 0.13585,82.5 -0.5257,2.46877 c -0.28915,1.35782 -1.23145,3.90233 -2.09405,5.65447 l -1.5683,3.1857 -2.60835,2.65037 c -2.99775,3.04604 -6.7899,5.34946 -10.6911,6.49396 l -2.71575,0.79673 -4.03425,-0.0351 -4.03425,-0.0351 -2.53695,-0.86583 z M 626,323.05935 c 5.4353,-2.0797 10.347,-6.96448 12.62855,-12.55935 l 1.12145,-2.75 0.1323,-82.22189 0.1323,-82.2219 -0.8032,-2.76305 c -2.13715,-7.35141 -7.12415,-12.65563 -14.1121,-15.0097 L 622.03155,124.5 h -3.9187 -3.9187 l -3.11685,1.05258 c -6.8169,2.30211 -12.3012,8.32891 -14.0569,15.44742 l -0.55495,2.25 0.1423,82.5 0.14225,82.5 1.58225,3.3398 c 2.7213,5.74409 7.09565,9.68052 13.09585,11.7848 l 3.3219,1.165 4.25,-0.21402 4.25,-0.214 z m -375.77268,-5.68816 c -0.13271,-0.34584 -0.1819,-8.05209 -0.10931,-17.125 L 250.25,283.75 l 10.91059,-0.13485 10.9106,-0.13485 -0.3151,0.50985 -0.31511,0.50985 H 261.82049 252.2 l -0.6,0.6 -0.6,0.6 v 4.55 4.55 l 0.6,0.6 0.6,0.6 h 8.65 8.65 v 0.5 0.5 h -8.65 -8.65 l -0.6,0.6 -0.6,0.6 v 8.8 8.8 l 0.6,0.6 0.6,0.6 h 9.9 9.9 v 0.5 0.5 h -10.76569 -10.7657 z m 55.5,0 c -0.13271,-0.34584 -0.1819,-8.05209 -0.10931,-17.125 L 305.75,283.75 h 7.25 7.25 l 2.40799,1.18557 2.40799,1.18558 1.34201,2.0262 1.34201,2.02621 0.16773,8.75684 c 0.0923,4.81626 0.0186,9.75108 -0.16359,10.96626 l -0.33132,2.20941 -2.0245,2.19633 -2.02452,2.19633 -2.52765,0.75064 L 318.3185,318 h -6.17494 -6.17494 z m 16.77268,-1.87294 2.25,-1.24825 1.125,-2.23095 1.125,-2.23094 v -8.9862 -8.98619 l -1.04803,-2.16493 -1.04802,-2.16493 -2.32698,-1.36793 L 320.25,284.75 h -6.75 -6.75 l -0.13232,15.43995 -0.13232,15.43995 0.60807,0.73267 0.60806,0.73267 6.27426,-0.17437 6.27425,-0.17437 z m 18.72732,1.87294 c -0.13271,-0.34584 -0.1819,-8.05209 -0.1093,-17.125 L 341.25,283.75 l 10.625,-0.13495 10.625,-0.13494 v 0.49959 0.49959 l -10.125,0.13535 -10.125,0.13536 -0.14704,4.5 c -0.0809,2.475 -0.0204,5.00625 0.13453,5.625 l 0.28156,1.125 h 8.99047 8.99048 v 0.5 0.5 h -8.68878 -8.68878 l -0.57273,0.6901 -0.57273,0.6901 0.13651,9.1849 0.13651,9.1849 10.125,0.13535 10.125,0.13536 V 317.51035 318 h -10.51569 -10.5157 z m 69.60602,0.29548 C 410.65,317.48333 410.5,309.83333 410.5,300.66667 V 284 h 0.5 0.5 v 15.9 15.9 l 0.6,0.6 0.6,0.6 h 9.15 9.15 v 0.5 0.5 h -9.91667 c -5.45417,0 -10.06667,-0.15 -10.24999,-0.33333 z m 56.52375,0.007 c -0.1793,-0.29012 -0.92159,-2.19153 -1.64954,-4.22538 -0.72795,-2.03385 -1.55,-3.97915 -1.82677,-4.3229 l -0.50322,-0.625 h -7.65307 -7.65306 l -0.7008,0.70079 c -0.38543,0.38544 -1.32433,2.41044 -2.08644,4.5 -0.76211,2.08956 -1.61189,3.79921 -1.88841,3.79921 -0.27653,0 -0.40225,-0.28125 -0.27939,-0.625 7.82511,-21.89393 12.15178,-33.36895 12.53381,-33.2416 0.26636,0.0888 1.58048,3.18884 2.92028,6.88901 7.26365,20.06038 9.49192,26.54039 9.31201,27.08013 l -0.19941,0.5982 z m -4.54342,-10.90889 c 0.32544,-0.84812 -5.61945,-17.64875 -6.6322,-18.74296 l -0.67433,-0.72858 -0.50225,0.50225 c -0.27624,0.27624 -1.96914,4.51397 -3.762,9.41718 l -3.25976,8.91493 0.56966,0.68639 0.56965,0.6864 h 6.70447 6.70447 z m 19.06133,10.95108 c -0.20625,-0.21017 -0.375,-7.99462 -0.375,-17.29879 V 283.5 l 6.125,0.011 6.125,0.011 2.04946,0.93076 c 1.12721,0.51191 2.58971,1.68822 3.25,2.61401 l 1.20054,1.68323 -0.017,2.84476 -0.017,2.84476 -1.69909,2.11431 -1.6991,2.1143 1.16692,0.79093 c 0.6418,0.43502 2.00859,1.584 3.03732,2.5533 l 1.87035,1.76236 0.64595,2.15595 0.64595,2.15595 -0.5976,2.23435 c -0.8189,3.06168 -2.3579,4.97745 -5.05673,6.29455 l -2.27992,1.11266 -7,0.18471 c -3.85,0.10159 -7.16875,0.0127 -7.375,-0.19742 z m 15.41037,-1.66187 c 1.11946,-0.50844 2.73673,-1.77531 3.59393,-2.81525 l 1.55855,-1.8908 0.3233,-1.9134 0.32325,-1.91341 -0.5701,-1.72738 c -0.31355,-0.95006 -1.43545,-2.50919 -2.4931,-3.46473 l -1.92305,-1.73735 -2.92408,-0.5773 c -3.88345,-0.76672 -4.1303,-0.88444 -2.73649,-1.305 0.65317,-0.19709 2.09197,-0.83659 3.19733,-1.42112 l 2.00975,-1.06278 0.92767,-1.72973 C 499.08255,293.54399 499.5,292.19608 499.5,291.5 c 0,-0.69608 -0.41745,-2.04399 -0.92767,-2.99534 l -0.92766,-1.72974 -2.18088,-1.15327 -2.18088,-1.15328 -5.26646,0.14081 -5.26645,0.14082 -0.13232,15.43995 -0.13232,15.43995 0.56854,0.68505 0.56854,0.68505 5.81378,-0.011 5.81378,-0.011 2.03537,-0.92445 z M 215.5,301 v -16.5 h 0.5 0.5 v 4.65 4.65 l 0.6,0.6 0.6,0.6 h 8.55 8.55 l 0.6,-0.6 0.6,-0.6 v -4.65 -4.65 h 0.5 0.5 v 16.5 16.5 h -0.5 -0.5 l -0.008,-10.125 c -0.004,-5.56875 -0.18948,-10.41148 -0.41169,-10.76162 l -0.40404,-0.63662 -9.21331,0.13662 -9.21331,0.13662 -0.13495,10.625 -0.13494,10.625 H 215.99005 215.5 Z m 73.22445,-0.25 c 1.8e-4,-9.35 0.0676,-13.10435 0.14988,-8.34299 0.0823,4.76135 0.0821,12.41136 -3.3e-4,17 -0.0824,4.58864 -0.14973,0.69299 -0.14955,-8.65701 z M 376,300.50952 v -16.99047 l 1.32346,-0.33216 c 0.72789,-0.18269 4.01999,-0.19659 7.31576,-0.0309 l 5.99232,0.30129 2.30923,1.14635 2.30923,1.14634 1.125,2.23095 c 0.61875,1.22702 1.12006,3.02702 1.11402,4 -0.0147,2.36855 -1.60472,5.7442 -3.19713,6.78758 -1.677,1.09882 -1.62873,1.72761 0.26969,3.51293 0.85887,0.8077 1.87137,2.19257 2.25,3.07749 l 0.68842,1.60894 v 5.26606 5.26605 h -0.5 -0.5 v -5.01605 -5.01606 l -0.69695,-1.66803 c -0.38332,-0.91742 -1.50976,-2.28799 -2.50319,-3.04572 l -1.80624,-1.37769 -2.25829,-0.25454 c -3.75391,-0.42312 -3.42217,-1.12385 0.87495,-1.84814 3.37375,-0.56863 6.38972,-4.13916 6.38972,-7.56461 0,-0.72764 -0.47652,-2.17084 -1.05895,-3.20711 l -1.05894,-1.88414 -2.00671,-1.12783 -2.00671,-1.12784 -5.59433,-0.24687 -5.59432,-0.24688 -1.09002,0.58337 L 377,285.03519 V 301.26759 317.5 h -0.5 -0.5 z m -210.86867,-1.76657 c -1.71527,-0.37266 -4.48098,-1.40366 -6.14601,-2.29111 l -3.02733,-1.61355 -2.70435,-2.92103 -2.70436,-2.92102 -1.49515,-3.13282 c -0.82234,-1.72305 -1.73173,-4.59095 -2.02087,-6.37312 l -0.52571,-3.2403 0.005,-124.25 0.005,-124.25 0.73953,-3.491277 c 1.84969,-8.732251 7.61846,-15.2257275 15.86904,-17.862617 l 3.12407,-0.9984535 4,0.0013 4,0.0013 3.32725,1.0552115 3.32725,1.055212 3.04835,2.244062 3.04834,2.244062 2.24406,3.048343 2.24406,3.048342 1.13034,3.327253 1.13016,3.327262 0.13786,125.5 0.13787,125.5 -0.53188,3.46837 -0.53189,3.46837 -1.50562,3.15475 -1.50562,3.15474 -2.70436,2.92103 -2.70435,2.92102 -3.0111,1.6049 c -3.11861,1.6622 -8.48565,3.06245 -11.53091,3.00839 -0.9625,-0.0171 -3.1534,-0.33597 -4.86867,-0.70862 z m 8.92542,-1.74559 c 1.48129,-0.27645 4.06338,-1.17277 5.73798,-1.99181 l 3.04473,-1.48918 2.60454,-2.75392 2.60455,-2.75392 1.60072,-3.37926 L 191.25,281.25 v -129 -129 l -1.59249,-3.361665 c -0.87587,-1.848916 -2.6555,-4.498107 -3.95474,-5.887093 L 183.34053,11.475813 179.5712,9.612907 175.80186,7.75 H 170.25 164.69813 l -3.76933,1.862907 -3.76934,1.862906 -2.36224,2.525429 c -1.29923,1.388986 -3.07886,4.038177 -3.95473,5.887093 L 149.25,23.25 l -0.12787,128.23734 -0.12787,128.23734 0.81097,2.51266 c 2.33037,7.2203 9.05873,13.30599 16.28291,14.72766 3.05513,0.60122 4.8808,0.60864 7.96861,0.0324 z M 96.25,256.06671 C 88.03505,253.70613 82.398915,248.17584 79.43834,239.57078 L 78.5,236.84345 V 154.72439 72.605335 l 0.982065,-3.177665 c 1.034605,-3.347685 3.227165,-7.216545 5.443435,-9.60517 1.897,-2.04452 6.411445,-5.00676 9.3245,-6.118445 l 2.5,-0.954055 5.5,0.0284 5.5,0.0284 2.77118,1.093665 c 5.46664,2.157455 11.33173,8.019155 13.60738,13.59951 l 1.12144,2.75 v 84.525955 84.52596 l -1.91838,3.88155 -1.91838,3.88155 -2.77425,2.77426 -2.77426,2.77425 -3.55736,1.67458 -3.55737,1.67458 -3.25,0.51488 c -4.28679,0.67913 -5.670665,0.61766 -9.25,-0.41086 z m 14.46506,-3.22375 c 5.88371,-2.71875 9.93422,-7.27506 11.79743,-13.27063 L 123.5,236.39466 v -81.9631 -81.963105 l -1.01857,-3.02358 c -1.32046,-3.919725 -2.76912,-6.157095 -5.84257,-9.02348 -4.1662,-3.88552 -9.10928,-5.906565 -14.46931,-5.915985 l -3.080455,-0.0054 -3.026645,0.942 c -4.10458,1.277485 -6.90452,3.000915 -9.65826,5.944885 -2.63474,2.81675 -3.96458,5.196995 -5.11555,9.156195 l -0.80322,2.76299 0.13229,82.47196 0.13229,82.47196 1.621465,3.42358 c 0.89181,1.88298 2.29191,4.2701 3.11134,5.30471 1.91764,2.42122 6.02478,5.23755 9.517195,6.52608 l 2.75,1.01462 5,-0.15297 5,-0.15296 z m 123.53494,3.61349 -3,-0.44102 -3.5,-1.72341 c -6.00407,-2.95641 -10.34035,-7.98256 -12.26794,-14.21969 L 214.5,236.89466 v -83.7131 -83.713105 l 1.03833,-3.082245 c 4.07659,-12.101185 16.41556,-18.817932 28.69419,-15.619755 4.3828,1.141575 7.46576,3.042105 10.98313,6.770705 l 3.15646,3.34602 1.25665,2.68341 c 0.69116,1.475875 1.50743,3.875735 1.81394,5.33302 L 262,71.54922 v 81.65714 81.65715 l -0.50383,2.65667 c -2.33632,12.31941 -14.5437,20.80362 -27.24617,18.93627 z m 117.01776,-0.0131 -2.98224,-0.43423 -3.65792,-1.73714 -3.65793,-1.73714 -2.75228,-2.75228 -2.75227,-2.75228 -1.71777,-3.64016 -1.71777,-3.64017 -0.53011,-3.5 -0.53011,-3.5 0.14032,-81.75 0.14032,-81.749995 1.11546,-2.925545 c 3.01483,-7.90707 9.0629,-13.6464 16.39224,-15.555455 12.25825,-3.192865 24.17902,3.21718 28.86511,15.521365 L 378.75,69.25 l 0.14033,81.75 0.14031,81.75 -0.5301,3.5 -0.53011,3.5 -1.6571,3.5 c -4.45919,9.4184 -14.53156,14.72428 -25.04557,13.1934 z m 68.48224,0.0252 c -3.69007,-0.6266 -6.44602,-1.71333 -9.52077,-3.75423 -3.65599,-2.42671 -5.97696,-5.1878 -8.16585,-9.71432 l -1.81338,-3.75 -0.14744,-84.5 -0.14744,-84.5 0.83187,-3.13943 c 1.00956,-3.81004 3.69224,-8.060095 7.06272,-11.189175 8.97879,-8.335723 23.27627,-7.885895 32.1586,1.011775 L 442.82029,59.75 444.4075,63 c 0.87297,1.7875 1.81341,4.46196 2.08986,5.943245 L 447,71.63649 v 82.07671 82.0767 l -0.74584,2.86345 c -3.11041,11.94167 -14.80433,19.80193 -26.50416,17.8152 z m 54.31719,-3.26149 C 467.34802,250.96233 462.48296,246.80521 459.48874,240.75 457.57128,236.87233 457,233.65867 457,226.75 c 0,-6.8283 0.56371,-10.01909 2.50169,-14.16048 l 1.481,-3.1648 3.13365,-3.12964 3.13366,-3.12963 3.25,-1.54288 c 1.7875,-0.84858 4.70857,-1.8052 6.49126,-2.12581 l 3.24127,-0.58293 2.75873,0.32044 c 9.17217,1.06537 16.77018,6.78569 20.06139,15.10362 l 1.1522,2.91211 0.19005,8.3955 0.19005,8.3955 -1.0217,3.3545 c -1.9471,6.39292 -6.24686,11.41668 -12.31325,14.38662 l -3.5,1.71351 -3.5,0.49228 c -4.92869,0.69323 -6.02121,0.60945 -10.18281,-0.78085 z M 682.75,253.99897 c -7.7968,-1.26233 -14.3761,-6.15858 -17.70865,-13.17868 -1.87495,-3.94948 -2.54345,-7.72078 -2.53265,-14.28712 0.0155,-9.47063 1.8627,-14.8758 6.88185,-20.13788 l 2.7744,-2.90864 3.38265,-1.69227 3.38265,-1.69226 3.61905,-0.61043 3.61905,-0.61044 3.54085,0.57006 3.5408,0.57005 3.0825,1.49973 c 5.8423,2.84246 10.24275,7.88368 12.3121,14.10484 l 1.0391,3.12407 0.011,8 0.011,8 -1.14125,3.22302 c -2.72225,7.68777 -8.4012,13.23524 -15.5646,15.20417 -3.72865,1.02485 -7.2513,1.30728 -10.25,0.82178 z m 12.8919,-4.14682 3.7797,-1.86804 2.3655,-2.61705 c 1.30105,-1.43938 3.06245,-4.07956 3.9142,-5.86706 l 1.5487,-3.25 0.16475,-8.52281 0.16475,-8.5228 -1.0732,-3.18573 c -2.63225,-7.81368 -9.0468,-13.26758 -17.19195,-14.61729 l -3.1945,-0.52934 -3.1849,0.55915 c -1.75175,0.30753 -4.55565,1.23292 -6.23095,2.05643 l -3.04605,1.49729 -2.59535,2.59533 -2.5953,2.59533 -1.45415,3.04692 c -2.37975,4.98623 -3.1816,13.3612 -1.98525,20.73446 1.30105,8.01867 6.68985,14.30685 14.71555,17.17165 l 2.50655,0.89471 4.8061,-0.15155 4.8061,-0.15156 z M 30,179.48272 c -3.407532,-0.60526 -6.239691,-1.75649 -9.270772,-3.7684 -3.617462,-2.40114 -5.98523,-5.19455 -8.022189,-9.46432 l -1.669728,-3.5 -0.514878,-3.25 c -0.644792,-4.07004 -0.6486595,-9.21173 -0.01034,-13.75 l 0.492282,-3.5 1.791194,-3.65751 1.791195,-3.65751 2.674107,-2.67411 2.674108,-2.67411 3.657512,-1.79106 3.657511,-1.79105 3.539229,-0.48836 3.539229,-0.48835 3.210771,0.50468 3.210771,0.50469 3.5,1.66973 c 6.00056,2.86266 10.12405,7.43921 12.315455,13.66859 l 1.01116,2.87437 0.28018,6.02646 0.28018,6.02646 -0.603845,3.47354 c -0.33212,1.91044 -1.300165,4.93604 -2.151215,6.72354 l -1.54737,3.25 -3.042275,3.04227 -3.04227,3.04227 -3.25,1.54083 c -4.948603,2.34615 -9.462401,3.00216 -14.5,2.10735 z m 8.100389,-2.04002 c 3.940415,-0.82879 7.563737,-2.70938 10.643851,-5.52444 l 2.74658,-2.51021 1.77732,-3.59617 1.77732,-3.59616 0.467215,-3.23286 c 1.052745,-7.28435 0.31812,-14.34953 -2.014035,-19.36978 l -1.45725,-3.13691 -2.758781,-2.75878 -2.75878,-2.75878 -3.386914,-1.58862 L 39.75,127.78137 35,127.58982 l -4.75,-0.19156 -3,1.05562 c -1.65,0.58058 -4.223109,1.8972 -5.71802,2.92582 l -2.718019,1.8702 -2.11599,2.87437 -2.11599,2.87437 -1.083901,3.25712 -1.0839,3.25713 0.16791,8.11855 0.16791,8.11856 1.610807,3.4008 1.610807,3.40081 2.889193,2.87676 c 5.335593,5.31262 12.269844,7.48028 19.239582,6.01433 z m 253.530941,1.80024 c -4.23224,-0.91949 -8.82839,-3.46244 -11.90803,-6.58847 l -2.55701,-2.59553 -1.53229,-3.15447 C 273.54246,162.59868 273,159.54578 273,152.08044 v -6.37034 l 0.74583,-2.86345 c 2.09224,-8.03265 7.69772,-14.12132 15.54453,-16.88447 l 2.95964,-1.04219 4.25,-0.0145 4.25,-0.0145 3.05209,0.97936 c 3.71889,1.19334 8.08963,4.02273 10.51567,6.80732 0.99301,1.13976 2.62149,3.7598 3.61886,5.8223 l 1.81338,3.75 0.16336,9.02692 0.16334,9.02692 -1.07725,3.22308 c -2.72165,8.14304 -9.18889,14.00603 -17.35926,15.73733 -4.09855,0.86849 -5.93126,0.86458 -10.00886,-0.0213 z"
       id="path14"
       inkscape:connector-curvature="0" />
  </g>
</svg>
