<?xml version="1.0" encoding="UTF-8" standalone="no"?>
<graphml xmlns="http://graphml.graphdrawing.org/xmlns" xmlns:java="http://www.yworks.com/xml/yfiles-common/1.0/java" xmlns:sys="http://www.yworks.com/xml/yfiles-common/markup/primitives/2.0" xmlns:x="http://www.yworks.com/xml/yfiles-common/markup/2.0" xmlns:xsi="http://www.w3.org/2001/XMLSchema-instance" xmlns:y="http://www.yworks.com/xml/graphml" xmlns:yed="http://www.yworks.com/xml/yed/3" xsi:schemaLocation="http://graphml.graphdrawing.org/xmlns http://www.yworks.com/xml/schema/graphml/1.1/ygraphml.xsd">
  <!--Created by yEd 3.20.1-->
  <key attr.name="Beschreibung" attr.type="string" for="graph" id="d0"/>
  <key for="port" id="d1" yfiles.type="portgraphics"/>
  <key for="port" id="d2" yfiles.type="portgeometry"/>
  <key for="port" id="d3" yfiles.type="portuserdata"/>
  <key attr.name="url" attr.type="string" for="node" id="d4"/>
  <key attr.name="description" attr.type="string" for="node" id="d5"/>
  <key for="node" id="d6" yfiles.type="nodegraphics"/>
  <key for="graphml" id="d7" yfiles.type="resources"/>
  <key attr.name="url" attr.type="string" for="edge" id="d8"/>
  <key attr.name="description" attr.type="string" for="edge" id="d9"/>
  <key for="edge" id="d10" yfiles.type="edgegraphics"/>
  <graph edgedefault="directed" id="G">
    <data key="d0" xml:space="preserve"/>
    <node id="n0">
      <data key="d6">
        <y:ShapeNode>
          <y:Geometry height="31.42240000000001" width="71.55360000000007" x="930.0" y="157.0"/>
          <y:Fill color="#E9ECEF" transparent="false"/>
          <y:BorderStyle color="#000000" raised="false" type="line" width="1.0"/>
          <y:NodeLabel alignment="center" autoSizePolicy="content" fontFamily="Liberation Sans" fontSize="12" fontStyle="plain" hasBackgroundColor="false" hasLineColor="false" height="17.40625" horizontalTextPosition="center" iconTextGap="4" modelName="custom" textColor="#000000" verticalTextPosition="bottom" visible="true" width="58.029296875" x="6.762151562500094" xml:space="preserve" y="7.008075000000019">Eukaryota<y:LabelModel><y:SmartNodeLabelModel distance="4.0"/></y:LabelModel><y:ModelParameter><y:SmartNodeLabelModelParameter labelRatioX="0.0" labelRatioY="0.0" nodeRatioX="0.0" nodeRatioY="0.0" offsetX="0.0" offsetY="0.0" upX="0.0" upY="-1.0"/></y:ModelParameter></y:NodeLabel>
          <y:Shape type="roundrectangle"/>
        </y:ShapeNode>
      </data>
    </node>
    <node id="n1">
      <data key="d6">
        <y:ShapeNode>
          <y:Geometry height="31.42240000000001" width="71.55360000000007" x="1099.0" y="203.22000000000006"/>
          <y:Fill color="#DEE2E6" transparent="false"/>
          <y:BorderStyle color="#000000" raised="false" type="line" width="1.0"/>
          <y:NodeLabel alignment="center" autoSizePolicy="content" fontFamily="Liberation Sans" fontSize="12" fontStyle="plain" hasBackgroundColor="false" hasLineColor="false" height="17.40625" horizontalTextPosition="center" iconTextGap="4" modelName="custom" textColor="#000000" verticalTextPosition="bottom" visible="true" width="50.025390625" x="10.764104687500094" xml:space="preserve" y="7.008074999999991">Metazoa<y:LabelModel><y:SmartNodeLabelModel distance="4.0"/></y:LabelModel><y:ModelParameter><y:SmartNodeLabelModelParameter labelRatioX="0.0" labelRatioY="0.0" nodeRatioX="0.0" nodeRatioY="0.0" offsetX="0.0" offsetY="0.0" upX="0.0" upY="-1.0"/></y:ModelParameter></y:NodeLabel>
          <y:Shape type="roundrectangle"/>
        </y:ShapeNode>
      </data>
    </node>
    <node id="n2">
      <data key="d6">
        <y:ShapeNode>
          <y:Geometry height="31.42240000000001" width="71.55360000000007" x="1099.0000000000007" y="249.44000000000005"/>
          <y:Fill color="#CED4DA" transparent="false"/>
          <y:BorderStyle color="#000000" raised="false" type="line" width="1.0"/>
          <y:NodeLabel alignment="center" autoSizePolicy="content" fontFamily="Liberation Sans" fontSize="12" fontStyle="plain" hasBackgroundColor="false" hasLineColor="false" height="17.40625" horizontalTextPosition="center" iconTextGap="4" modelName="custom" textColor="#000000" verticalTextPosition="bottom" visible="true" width="46.017578125" x="12.768010937500094" xml:space="preserve" y="7.008075000000019">Porifera<y:LabelModel><y:SmartNodeLabelModel distance="4.0"/></y:LabelModel><y:ModelParameter><y:SmartNodeLabelModelParameter labelRatioX="0.0" labelRatioY="0.0" nodeRatioX="0.0" nodeRatioY="0.0" offsetX="0.0" offsetY="0.0" upX="0.0" upY="-1.0"/></y:ModelParameter></y:NodeLabel>
          <y:Shape type="roundrectangle"/>
        </y:ShapeNode>
      </data>
    </node>
    <node id="n3" yfiles.foldertype="group">
      <data key="d4" xml:space="preserve"/>
      <data key="d6">
        <y:ProxyAutoBoundsNode>
          <y:Realizers active="0">
            <y:GroupNode>
              <y:Geometry height="407.52021249999996" width="101.5536000000011" x="1424.2336" y="167.46218750000003"/>
              <y:Fill color="#F5F5F5" transparent="false"/>
              <y:BorderStyle color="#000000" type="line" width="1.0"/>
              <y:NodeLabel alignment="center" autoSizePolicy="node_width" backgroundColor="#EBEBEB" borderDistance="0.0" fontFamily="Liberation Sans" fontSize="15" fontStyle="plain" hasLineColor="false" height="20.7578125" horizontalTextPosition="center" iconTextGap="4" modelName="internal" modelPosition="t" textColor="#000000" verticalTextPosition="bottom" visible="true" width="101.5536000000011" x="0.0" xml:space="preserve" y="0.0">Legend</y:NodeLabel>
              <y:Shape type="roundrectangle"/>
              <y:State closed="false" closedHeight="50.0" closedWidth="50.0" innerGraphDisplayEnabled="false"/>
              <y:Insets bottom="15" bottomF="15.0" left="15" leftF="15.0" right="15" rightF="15.0" top="15" topF="15.0"/>
              <y:BorderInsets bottom="0" bottomF="0.0" left="0" leftF="0.0" right="0" rightF="0.0" top="0" topF="0.0"/>
            </y:GroupNode>
            <y:GroupNode>
              <y:Geometry height="50.0" width="50.0" x="0.0" y="60.0"/>
              <y:Fill color="#F5F5F5" transparent="false"/>
              <y:BorderStyle color="#000000" type="dashed" width="1.0"/>
              <y:NodeLabel alignment="right" autoSizePolicy="node_width" backgroundColor="#EBEBEB" borderDistance="0.0" fontFamily="Dialog" fontSize="15" fontStyle="plain" hasLineColor="false" height="21.4609375" horizontalTextPosition="center" iconTextGap="4" modelName="internal" modelPosition="t" textColor="#000000" verticalTextPosition="bottom" visible="true" width="65.201171875" x="-7.6005859375" xml:space="preserve" y="0.0">Folder 1</y:NodeLabel>
              <y:Shape type="roundrectangle"/>
              <y:State closed="true" closedHeight="50.0" closedWidth="50.0" innerGraphDisplayEnabled="false"/>
              <y:Insets bottom="5" bottomF="5.0" left="5" leftF="5.0" right="5" rightF="5.0" top="5" topF="5.0"/>
              <y:BorderInsets bottom="0" bottomF="0.0" left="0" leftF="0.0" right="0" rightF="0.0" top="0" topF="0.0"/>
            </y:GroupNode>
          </y:Realizers>
        </y:ProxyAutoBoundsNode>
      </data>
      <graph edgedefault="directed" id="n3:">
        <node id="n3::n0">
          <data key="d6">
            <y:ShapeNode>
              <y:Geometry height="31.42240000000001" width="71.55360000000007" x="1439.2336" y="203.22000000000003"/>
              <y:Fill color="#DEE2E6" transparent="false"/>
              <y:BorderStyle color="#000000" raised="false" type="line" width="1.0"/>
              <y:NodeLabel alignment="center" autoSizePolicy="content" fontFamily="Liberation Sans" fontSize="12" fontStyle="plain" hasBackgroundColor="false" hasLineColor="false" height="17.40625" horizontalTextPosition="center" iconTextGap="4" modelName="custom" textColor="#000000" verticalTextPosition="bottom" visible="true" width="51.361328125" x="10.096135937500094" xml:space="preserve" y="7.008075000000019">Kingdom<y:LabelModel><y:SmartNodeLabelModel distance="4.0"/></y:LabelModel><y:ModelParameter><y:SmartNodeLabelModelParameter labelRatioX="0.0" labelRatioY="0.0" nodeRatioX="0.0" nodeRatioY="0.0" offsetX="0.0" offsetY="0.0" upX="0.0" upY="-1.0"/></y:ModelParameter></y:NodeLabel>
              <y:Shape type="roundrectangle"/>
            </y:ShapeNode>
          </data>
        </node>
        <node id="n3::n1">
          <data key="d6">
            <y:ShapeNode>
              <y:Geometry height="31.42240000000001" width="71.55360000000007" x="1439.2336000000003" y="249.44000000000008"/>
              <y:Fill color="#CED4DA" transparent="false"/>
              <y:BorderStyle color="#000000" raised="false" type="line" width="1.0"/>
              <y:NodeLabel alignment="center" autoSizePolicy="content" fontFamily="Liberation Sans" fontSize="12" fontStyle="plain" hasBackgroundColor="false" hasLineColor="false" height="17.40625" horizontalTextPosition="center" iconTextGap="4" modelName="custom" textColor="#000000" verticalTextPosition="bottom" visible="true" width="44.013671875" x="13.769964062500094" xml:space="preserve" y="7.008074999999991">Phylum<y:LabelModel><y:SmartNodeLabelModel distance="4.0"/></y:LabelModel><y:ModelParameter><y:SmartNodeLabelModelParameter labelRatioX="0.0" labelRatioY="0.0" nodeRatioX="0.0" nodeRatioY="0.0" offsetX="0.0" offsetY="0.0" upX="0.0" upY="-1.0"/></y:ModelParameter></y:NodeLabel>
              <y:Shape type="roundrectangle"/>
            </y:ShapeNode>
          </data>
        </node>
        <node id="n3::n2">
          <data key="d6">
            <y:ShapeNode>
              <y:Geometry height="31.42240000000001" width="71.55360000000007" x="1439.2336000000005" y="343.6799999999999"/>
              <y:Fill color="#ADB5BD" transparent="false"/>
              <y:BorderStyle color="#000000" raised="false" type="line" width="1.0"/>
              <y:NodeLabel alignment="center" autoSizePolicy="content" fontFamily="Liberation Sans" fontSize="12" fontStyle="plain" hasBackgroundColor="false" hasLineColor="false" height="17.40625" horizontalTextPosition="center" iconTextGap="4" modelName="custom" textColor="#000000" verticalTextPosition="bottom" visible="true" width="34.005859375" x="18.773870312500094" xml:space="preserve" y="7.008075000000019">Class<y:LabelModel><y:SmartNodeLabelModel distance="4.0"/></y:LabelModel><y:ModelParameter><y:SmartNodeLabelModelParameter labelRatioX="0.0" labelRatioY="0.0" nodeRatioX="0.0" nodeRatioY="0.0" offsetX="0.0" offsetY="0.0" upX="0.0" upY="-1.0"/></y:ModelParameter></y:NodeLabel>
              <y:Shape type="roundrectangle"/>
            </y:ShapeNode>
          </data>
        </node>
        <node id="n3::n3">
          <data key="d6">
            <y:ShapeNode>
              <y:Geometry height="31.42240000000001" width="71.55360000000007" x="1439.2336000000005" y="389.8999999999999"/>
              <y:Fill color="#6C757D" transparent="false"/>
              <y:BorderStyle color="#000000" raised="false" type="line" width="1.0"/>
              <y:NodeLabel alignment="center" autoSizePolicy="content" fontFamily="Liberation Sans" fontSize="12" fontStyle="plain" hasBackgroundColor="false" hasLineColor="false" height="17.40625" horizontalTextPosition="center" iconTextGap="4" modelName="custom" textColor="#FFFFFF" verticalTextPosition="bottom" visible="true" width="34.673828125" x="18.439885937500094" xml:space="preserve" y="7.008075000000019">Order<y:LabelModel><y:SmartNodeLabelModel distance="4.0"/></y:LabelModel><y:ModelParameter><y:SmartNodeLabelModelParameter labelRatioX="0.0" labelRatioY="0.0" nodeRatioX="0.0" nodeRatioY="0.0" offsetX="0.0" offsetY="0.0" upX="0.0" upY="-1.0"/></y:ModelParameter></y:NodeLabel>
              <y:Shape type="roundrectangle"/>
            </y:ShapeNode>
          </data>
        </node>
        <node id="n3::n4">
          <data key="d6">
            <y:ShapeNode>
              <y:Geometry height="31.42240000000001" width="71.55360000000007" x="1439.2336000000007" y="436.11999999999995"/>
              <y:Fill color="#495057" transparent="false"/>
              <y:BorderStyle color="#000000" raised="false" type="line" width="1.0"/>
              <y:NodeLabel alignment="center" autoSizePolicy="content" fontFamily="Liberation Sans" fontSize="12" fontStyle="plain" hasBackgroundColor="false" hasLineColor="false" height="17.40625" horizontalTextPosition="center" iconTextGap="4" modelName="custom" textColor="#FFFFFF" verticalTextPosition="bottom" visible="true" width="39.33203125" x="16.110784375000094" xml:space="preserve" y="7.008075000000019">Family<y:LabelModel><y:SmartNodeLabelModel distance="4.0"/></y:LabelModel><y:ModelParameter><y:SmartNodeLabelModelParameter labelRatioX="0.0" labelRatioY="0.0" nodeRatioX="0.0" nodeRatioY="0.0" offsetX="0.0" offsetY="0.0" upX="0.0" upY="-1.0"/></y:ModelParameter></y:NodeLabel>
              <y:Shape type="roundrectangle"/>
            </y:ShapeNode>
          </data>
        </node>
        <node id="n3::n5">
          <data key="d6">
            <y:ShapeNode>
              <y:Geometry height="31.42240000000001" width="71.55360000000007" x="1439.2336000000007" y="482.34"/>
              <y:Fill color="#343A40" transparent="false"/>
              <y:BorderStyle color="#000000" raised="false" type="line" width="1.0"/>
              <y:NodeLabel alignment="center" autoSizePolicy="content" fontFamily="Liberation Sans" fontSize="12" fontStyle="plain" hasBackgroundColor="false" hasLineColor="false" height="17.40625" horizontalTextPosition="center" iconTextGap="4" modelName="custom" textColor="#FFFFFF" verticalTextPosition="bottom" visible="true" width="39.35546875" x="16.099065625000094" xml:space="preserve" y="7.008075000000019">Genus<y:LabelModel><y:SmartNodeLabelModel distance="4.0"/></y:LabelModel><y:ModelParameter><y:SmartNodeLabelModelParameter labelRatioX="0.0" labelRatioY="0.0" nodeRatioX="0.0" nodeRatioY="0.0" offsetX="0.0" offsetY="0.0" upX="0.0" upY="-1.0"/></y:ModelParameter></y:NodeLabel>
              <y:Shape type="roundrectangle"/>
            </y:ShapeNode>
          </data>
        </node>
        <node id="n3::n6">
          <data key="d6">
            <y:ShapeNode>
              <y:Geometry height="31.42240000000001" width="71.55360000000007" x="1439.233600000001" y="528.56"/>
              <y:Fill color="#000000" transparent="false"/>
              <y:BorderStyle color="#212529" raised="false" type="line" width="1.0"/>
              <y:NodeLabel alignment="center" autoSizePolicy="content" fontFamily="Liberation Sans" fontSize="12" fontStyle="plain" hasBackgroundColor="false" hasLineColor="false" height="17.40625" horizontalTextPosition="center" iconTextGap="4" modelName="custom" textColor="#FFFFFF" verticalTextPosition="bottom" visible="true" width="46.69140625" x="12.431096875000094" xml:space="preserve" y="7.008075000000019">Species<y:LabelModel><y:SmartNodeLabelModel distance="4.0"/></y:LabelModel><y:ModelParameter><y:SmartNodeLabelModelParameter labelRatioX="0.0" labelRatioY="0.0" nodeRatioX="0.0" nodeRatioY="0.0" offsetX="0.0" offsetY="0.0" upX="0.0" upY="-1.0"/></y:ModelParameter></y:NodeLabel>
              <y:Shape type="roundrectangle"/>
            </y:ShapeNode>
          </data>
        </node>
        <node id="n3::n7">
          <data key="d6">
            <y:ShapeNode>
              <y:Geometry height="31.42240000000001" width="71.55360000000007" x="1439.2336000000005" y="295.66000000000014"/>
              <y:Fill color="#CED4DA" transparent="false"/>
              <y:BorderStyle color="#000000" raised="false" type="dashed" width="1.0"/>
              <y:NodeLabel alignment="center" autoSizePolicy="content" fontFamily="Liberation Sans" fontSize="12" fontStyle="plain" hasBackgroundColor="false" hasLineColor="false" height="17.40625" horizontalTextPosition="center" iconTextGap="4" modelName="custom" textColor="#000000" verticalTextPosition="bottom" visible="true" width="64.03515625" x="3.759221875000094" xml:space="preserve" y="7.008075000000019">Subphylum<y:LabelModel><y:SmartNodeLabelModel distance="4.0"/></y:LabelModel><y:ModelParameter><y:SmartNodeLabelModelParameter labelRatioX="0.0" labelRatioY="0.0" nodeRatioX="0.0" nodeRatioY="0.0" offsetX="0.0" offsetY="0.0" upX="0.0" upY="-1.0"/></y:ModelParameter></y:NodeLabel>
              <y:Shape type="roundrectangle"/>
            </y:ShapeNode>
          </data>
        </node>
      </graph>
    </node>
    <node id="n4">
      <data key="d6">
        <y:ShapeNode>
          <y:Geometry height="31.42240000000001" width="71.55360000000007" x="754.9496000000004" y="201.4200000000003"/>
          <y:Fill color="#DEE2E6" transparent="false"/>
          <y:BorderStyle color="#000000" raised="false" type="line" width="1.0"/>
          <y:NodeLabel alignment="center" autoSizePolicy="content" fontFamily="Liberation Sans" fontSize="12" fontStyle="plain" hasBackgroundColor="false" hasLineColor="false" height="17.40625" horizontalTextPosition="center" iconTextGap="4" modelName="custom" textColor="#000000" verticalTextPosition="bottom" visible="true" width="34.017578125" x="18.76801093749998" xml:space="preserve" y="7.008075000000019">Fungi<y:LabelModel><y:SmartNodeLabelModel distance="4.0"/></y:LabelModel><y:ModelParameter><y:SmartNodeLabelModelParameter labelRatioX="0.0" labelRatioY="0.0" nodeRatioX="0.0" nodeRatioY="0.0" offsetX="0.0" offsetY="0.0" upX="0.0" upY="-1.0"/></y:ModelParameter></y:NodeLabel>
          <y:Shape type="roundrectangle"/>
        </y:ShapeNode>
      </data>
    </node>
    <node id="n5">
      <data key="d6">
        <y:ShapeNode>
          <y:Geometry height="31.42240000000001" width="93.95359999999971" x="469.39920000000075" y="249.44000000000005"/>
          <y:Fill color="#CED4DA" transparent="false"/>
          <y:BorderStyle color="#000000" raised="false" type="line" width="1.0"/>
          <y:NodeLabel alignment="center" autoSizePolicy="content" fontFamily="Liberation Sans" fontSize="12" fontStyle="plain" hasBackgroundColor="false" hasLineColor="false" height="17.40625" horizontalTextPosition="center" iconTextGap="4" modelName="custom" textColor="#000000" verticalTextPosition="bottom" visible="true" width="82.03515625" x="5.959221874999798" xml:space="preserve" y="7.008075000000019">Basidiomycota<y:LabelModel><y:SmartNodeLabelModel distance="4.0"/></y:LabelModel><y:ModelParameter><y:SmartNodeLabelModelParameter labelRatioX="0.0" labelRatioY="0.0" nodeRatioX="0.0" nodeRatioY="0.0" offsetX="0.0" offsetY="0.0" upX="0.0" upY="-1.0"/></y:ModelParameter></y:NodeLabel>
          <y:Shape type="roundrectangle"/>
        </y:ShapeNode>
      </data>
    </node>
    <node id="n6">
      <data key="d6">
        <y:ShapeNode>
          <y:Geometry height="31.42240000000001" width="93.95359999999971" x="743.7496000000011" y="249.44000000000005"/>
          <y:Fill color="#CED4DA" transparent="false"/>
          <y:BorderStyle color="#000000" raised="false" type="line" width="1.0"/>
          <y:NodeLabel alignment="center" autoSizePolicy="content" fontFamily="Liberation Sans" fontSize="12" fontStyle="plain" hasBackgroundColor="false" hasLineColor="false" height="17.40625" horizontalTextPosition="center" iconTextGap="4" modelName="custom" textColor="#000000" verticalTextPosition="bottom" visible="true" width="69.35546875" x="12.299065624999798" xml:space="preserve" y="7.008075000000019">Ascomycota<y:LabelModel><y:SmartNodeLabelModel distance="4.0"/></y:LabelModel><y:ModelParameter><y:SmartNodeLabelModelParameter labelRatioX="0.0" labelRatioY="0.0" nodeRatioX="0.0" nodeRatioY="0.0" offsetX="0.0" offsetY="0.0" upX="0.0" upY="-1.0"/></y:ModelParameter></y:NodeLabel>
          <y:Shape type="roundrectangle"/>
        </y:ShapeNode>
      </data>
    </node>
    <node id="n7">
      <data key="d6">
        <y:ShapeNode>
          <y:Geometry height="31.42240000000001" width="82.75359999999989" x="1261.616800000001" y="249.44000000000005"/>
          <y:Fill color="#CED4DA" transparent="false"/>
          <y:BorderStyle color="#000000" raised="false" type="line" width="1.0"/>
          <y:NodeLabel alignment="center" autoSizePolicy="content" fontFamily="Liberation Sans" fontSize="12" fontStyle="plain" hasBackgroundColor="false" hasLineColor="false" height="17.40625" horizontalTextPosition="center" iconTextGap="4" modelName="custom" textColor="#000000" verticalTextPosition="bottom" visible="true" width="72.701171875" x="5.026214062500003" xml:space="preserve" y="7.008075000000019">Apicomplexa<y:LabelModel><y:SmartNodeLabelModel distance="4.0"/></y:LabelModel><y:ModelParameter><y:SmartNodeLabelModelParameter labelRatioX="0.0" labelRatioY="0.0" nodeRatioX="0.0" nodeRatioY="0.0" offsetX="0.0" offsetY="0.0" upX="0.0" upY="-1.0"/></y:ModelParameter></y:NodeLabel>
          <y:Shape type="roundrectangle"/>
        </y:ShapeNode>
      </data>
    </node>
    <node id="n8">
      <data key="d6">
        <y:ShapeNode>
          <y:Geometry height="31.42240000000001" width="93.95360000000005" x="1087.8000000000006" y="343.6799999999999"/>
          <y:Fill color="#ADB5BD" transparent="false"/>
          <y:BorderStyle color="#000000" raised="false" type="line" width="1.0"/>
          <y:NodeLabel alignment="center" autoSizePolicy="content" fontFamily="Liberation Sans" fontSize="12" fontStyle="plain" hasBackgroundColor="false" hasLineColor="false" height="17.40625" horizontalTextPosition="center" iconTextGap="4" modelName="custom" textColor="#000000" verticalTextPosition="bottom" visible="true" width="84.71875" x="4.617424999999912" xml:space="preserve" y="7.008075000000019">Demospongiae<y:LabelModel><y:SmartNodeLabelModel distance="4.0"/></y:LabelModel><y:ModelParameter><y:SmartNodeLabelModelParameter labelRatioX="0.0" labelRatioY="0.0" nodeRatioX="0.0" nodeRatioY="0.0" offsetX="0.0" offsetY="0.0" upX="0.0" upY="-1.0"/></y:ModelParameter></y:NodeLabel>
          <y:Shape type="roundrectangle"/>
        </y:ShapeNode>
      </data>
    </node>
    <node id="n9">
      <data key="d6">
        <y:ShapeNode>
          <y:Geometry height="31.42240000000001" width="93.95359999999994" x="1087.8000000000006" y="389.8999999999999"/>
          <y:Fill color="#6C757D" transparent="false"/>
          <y:BorderStyle color="#000000" raised="false" type="line" width="1.0"/>
          <y:NodeLabel alignment="center" autoSizePolicy="content" fontFamily="Liberation Sans" fontSize="12" fontStyle="plain" hasBackgroundColor="false" hasLineColor="false" height="17.40625" horizontalTextPosition="center" iconTextGap="4" modelName="custom" textColor="#FFFFFF" verticalTextPosition="bottom" visible="true" width="76.703125" x="8.625237499999912" xml:space="preserve" y="7.008075000000019">Haplosclerida<y:LabelModel><y:SmartNodeLabelModel distance="4.0"/></y:LabelModel><y:ModelParameter><y:SmartNodeLabelModelParameter labelRatioX="0.0" labelRatioY="0.0" nodeRatioX="0.0" nodeRatioY="0.0" offsetX="0.0" offsetY="0.0" upX="0.0" upY="-1.0"/></y:ModelParameter></y:NodeLabel>
          <y:Shape type="roundrectangle"/>
        </y:ShapeNode>
      </data>
    </node>
    <node id="n10">
      <data key="d6">
        <y:ShapeNode>
          <y:Geometry height="31.42240000000001" width="71.55360000000007" x="1099.0000000000005" y="436.11999999999995"/>
          <y:Fill color="#495057" transparent="false"/>
          <y:BorderStyle color="#000000" raised="false" type="line" width="1.0"/>
          <y:NodeLabel alignment="center" autoSizePolicy="content" fontFamily="Liberation Sans" fontSize="12" fontStyle="plain" hasBackgroundColor="false" hasLineColor="false" height="17.40625" horizontalTextPosition="center" iconTextGap="4" modelName="custom" textColor="#FFFFFF" verticalTextPosition="bottom" visible="true" width="61.375" x="5.089300000000094" xml:space="preserve" y="7.008075000000019">Niphatidae<y:LabelModel><y:SmartNodeLabelModel distance="4.0"/></y:LabelModel><y:ModelParameter><y:SmartNodeLabelModelParameter labelRatioX="0.0" labelRatioY="0.0" nodeRatioX="0.0" nodeRatioY="0.0" offsetX="0.0" offsetY="0.0" upX="0.0" upY="-1.0"/></y:ModelParameter></y:NodeLabel>
          <y:Shape type="roundrectangle"/>
        </y:ShapeNode>
      </data>
    </node>
    <node id="n11">
      <data key="d6">
        <y:ShapeNode>
          <y:Geometry height="31.42240000000001" width="93.95359999999994" x="1087.8000000000006" y="482.34"/>
          <y:Fill color="#343A40" transparent="false"/>
          <y:BorderStyle color="#000000" raised="false" type="line" width="1.0"/>
          <y:NodeLabel alignment="center" autoSizePolicy="content" fontFamily="Liberation Sans" fontSize="12" fontStyle="plain" hasBackgroundColor="false" hasLineColor="false" height="17.40625" horizontalTextPosition="center" iconTextGap="4" modelName="custom" textColor="#FFFFFF" verticalTextPosition="bottom" visible="true" width="74.705078125" x="9.624260937499912" xml:space="preserve" y="7.008075000000019">Amphimedon<y:LabelModel><y:SmartNodeLabelModel distance="4.0"/></y:LabelModel><y:ModelParameter><y:SmartNodeLabelModelParameter labelRatioX="0.0" labelRatioY="0.0" nodeRatioX="0.0" nodeRatioY="0.0" offsetX="0.0" offsetY="0.0" upX="0.0" upY="-1.0"/></y:ModelParameter></y:NodeLabel>
          <y:Shape type="roundrectangle"/>
        </y:ShapeNode>
      </data>
    </node>
    <node id="n12">
      <data key="d6">
        <y:ShapeNode>
          <y:Geometry height="31.42240000000001" width="170.91359999999975" x="1049.3200000000006" y="528.56"/>
          <y:Fill color="#000000" transparent="false"/>
          <y:BorderStyle color="#212529" raised="false" type="line" width="1.0"/>
          <y:NodeLabel alignment="center" autoSizePolicy="content" fontFamily="Liberation Sans" fontSize="12" fontStyle="italic" hasBackgroundColor="false" hasLineColor="false" height="17.40625" horizontalTextPosition="center" iconTextGap="4" modelName="custom" textColor="#FFFFFF" verticalTextPosition="bottom" visible="true" width="155.435546875" x="7.73902656249993" xml:space="preserve" y="7.0080749999999625">Amphimedon queenslandica<y:LabelModel><y:SmartNodeLabelModel distance="4.0"/></y:LabelModel><y:ModelParameter><y:SmartNodeLabelModelParameter labelRatioX="0.0" labelRatioY="0.0" nodeRatioX="0.0" nodeRatioY="0.0" offsetX="0.0" offsetY="0.0" upX="0.0" upY="-1.0"/></y:ModelParameter></y:NodeLabel>
          <y:Shape type="roundrectangle"/>
        </y:ShapeNode>
      </data>
    </node>
    <node id="n13">
      <data key="d6">
        <y:ShapeNode>
          <y:Geometry height="31.42240000000001" width="101.5536000000011" x="465.59919999999994" y="343.6799999999999"/>
          <y:Fill color="#ADB5BD" transparent="false"/>
          <y:BorderStyle color="#000000" raised="false" type="line" width="1.0"/>
          <y:NodeLabel alignment="center" autoSizePolicy="content" fontFamily="Liberation Sans" fontSize="12" fontStyle="plain" hasBackgroundColor="false" hasLineColor="false" height="17.40625" horizontalTextPosition="center" iconTextGap="4" modelName="custom" textColor="#000000" verticalTextPosition="bottom" visible="true" width="89.365234375" x="6.094182812500549" xml:space="preserve" y="7.008075000000019">Agaricomycetes<y:LabelModel><y:SmartNodeLabelModel distance="4.0"/></y:LabelModel><y:ModelParameter><y:SmartNodeLabelModelParameter labelRatioX="0.0" labelRatioY="0.0" nodeRatioX="0.0" nodeRatioY="0.0" offsetX="0.0" offsetY="0.0" upX="0.0" upY="-1.0"/></y:ModelParameter></y:NodeLabel>
          <y:Shape type="roundrectangle"/>
        </y:ShapeNode>
      </data>
    </node>
    <node id="n14">
      <data key="d6">
        <y:ShapeNode>
          <y:Geometry height="31.42240000000001" width="93.95359999999994" x="469.39920000000063" y="389.8999999999999"/>
          <y:Fill color="#6C757D" transparent="false"/>
          <y:BorderStyle color="#000000" raised="false" type="line" width="1.0"/>
          <y:NodeLabel alignment="center" autoSizePolicy="content" fontFamily="Liberation Sans" fontSize="12" fontStyle="plain" hasBackgroundColor="false" hasLineColor="false" height="17.40625" horizontalTextPosition="center" iconTextGap="4" modelName="custom" textColor="#FFFFFF" verticalTextPosition="bottom" visible="true" width="60.02734375" x="16.963128125000026" xml:space="preserve" y="7.008075000000019">Agaricales<y:LabelModel><y:SmartNodeLabelModel distance="4.0"/></y:LabelModel><y:ModelParameter><y:SmartNodeLabelModelParameter labelRatioX="0.0" labelRatioY="0.0" nodeRatioX="0.0" nodeRatioY="0.0" offsetX="0.0" offsetY="0.0" upX="0.0" upY="-1.0"/></y:ModelParameter></y:NodeLabel>
          <y:Shape type="roundrectangle"/>
        </y:ShapeNode>
      </data>
    </node>
    <node id="n15">
      <data key="d6">
        <y:ShapeNode>
          <y:Geometry height="31.42240000000001" width="101.55360000000098" x="465.5992" y="436.11999999999995"/>
          <y:Fill color="#495057" transparent="false"/>
          <y:BorderStyle color="#000000" raised="false" type="line" width="1.0"/>
          <y:NodeLabel alignment="center" autoSizePolicy="content" fontFamily="Liberation Sans" fontSize="12" fontStyle="plain" hasBackgroundColor="false" hasLineColor="false" height="17.40625" horizontalTextPosition="center" iconTextGap="4" modelName="custom" textColor="#FFFFFF" verticalTextPosition="bottom" visible="true" width="89.3828125" x="6.085393750000435" xml:space="preserve" y="7.008075000000019">Psathyrellaceae<y:LabelModel><y:SmartNodeLabelModel distance="4.0"/></y:LabelModel><y:ModelParameter><y:SmartNodeLabelModelParameter labelRatioX="0.0" labelRatioY="0.0" nodeRatioX="0.0" nodeRatioY="0.0" offsetX="0.0" offsetY="0.0" upX="0.0" upY="-1.0"/></y:ModelParameter></y:NodeLabel>
          <y:Shape type="roundrectangle"/>
        </y:ShapeNode>
      </data>
    </node>
    <node id="n16">
      <data key="d6">
        <y:ShapeNode>
          <y:Geometry height="31.42240000000001" width="93.95359999999994" x="469.39920000000063" y="482.34"/>
          <y:Fill color="#343A40" transparent="false"/>
          <y:BorderStyle color="#000000" raised="false" type="line" width="1.0"/>
          <y:NodeLabel alignment="center" autoSizePolicy="content" fontFamily="Liberation Sans" fontSize="12" fontStyle="plain" hasBackgroundColor="false" hasLineColor="false" height="17.40625" horizontalTextPosition="center" iconTextGap="4" modelName="custom" textColor="#FFFFFF" verticalTextPosition="bottom" visible="true" width="67.36328125" x="13.295159375000026" xml:space="preserve" y="7.008075000000019">Coprinopsis<y:LabelModel><y:SmartNodeLabelModel distance="4.0"/></y:LabelModel><y:ModelParameter><y:SmartNodeLabelModelParameter labelRatioX="0.0" labelRatioY="0.0" nodeRatioX="0.0" nodeRatioY="0.0" offsetX="0.0" offsetY="0.0" upX="0.0" upY="-1.0"/></y:ModelParameter></y:NodeLabel>
          <y:Shape type="roundrectangle"/>
        </y:ShapeNode>
      </data>
    </node>
    <node id="n17">
      <data key="d6">
        <y:ShapeNode>
          <y:Geometry height="31.42240000000001" width="130.11359999999968" x="451.3192000000007" y="528.5599999999998"/>
          <y:Fill color="#000000" transparent="false"/>
          <y:BorderStyle color="#212529" raised="false" type="line" width="1.0"/>
          <y:NodeLabel alignment="center" autoSizePolicy="content" fontFamily="Liberation Sans" fontSize="12" fontStyle="italic" hasBackgroundColor="false" hasLineColor="false" height="17.40625" horizontalTextPosition="center" iconTextGap="4" modelName="custom" textColor="#FFFFFF" verticalTextPosition="bottom" visible="true" width="110.0546875" x="10.02945624999984" xml:space="preserve" y="7.008075000000019">Coprinopsis cinerea<y:LabelModel><y:SmartNodeLabelModel distance="4.0"/></y:LabelModel><y:ModelParameter><y:SmartNodeLabelModelParameter labelRatioX="0.0" labelRatioY="0.0" nodeRatioX="0.0" nodeRatioY="0.0" offsetX="0.0" offsetY="0.0" upX="0.0" upY="-1.0"/></y:ModelParameter></y:NodeLabel>
          <y:Shape type="roundrectangle"/>
        </y:ShapeNode>
      </data>
    </node>
    <node id="n18">
      <data key="d6">
        <y:ShapeNode>
          <y:Geometry height="31.42240000000001" width="115.83360000000039" x="893.3399999999997" y="343.6799999999999"/>
          <y:Fill color="#ADB5BD" transparent="false"/>
          <y:BorderStyle color="#000000" raised="false" type="line" width="1.0"/>
          <y:NodeLabel alignment="center" autoSizePolicy="content" fontFamily="Liberation Sans" fontSize="12" fontStyle="plain" hasBackgroundColor="false" hasLineColor="false" height="17.40625" horizontalTextPosition="center" iconTextGap="4" modelName="custom" textColor="#000000" verticalTextPosition="bottom" visible="true" width="99.373046875" x="8.230276562500194" xml:space="preserve" y="7.008075000000019">Saccharomycetes<y:LabelModel><y:SmartNodeLabelModel distance="4.0"/></y:LabelModel><y:ModelParameter><y:SmartNodeLabelModelParameter labelRatioX="0.0" labelRatioY="0.0" nodeRatioX="0.0" nodeRatioY="0.0" offsetX="0.0" offsetY="0.0" upX="0.0" upY="-1.0"/></y:ModelParameter></y:NodeLabel>
          <y:Shape type="roundrectangle"/>
        </y:ShapeNode>
      </data>
    </node>
    <node id="n19">
      <data key="d6">
        <y:ShapeNode>
          <y:Geometry height="31.42240000000001" width="122.95359999999994" x="889.78" y="389.8999999999999"/>
          <y:Fill color="#6C757D" transparent="false"/>
          <y:BorderStyle color="#000000" raised="false" type="line" width="1.0"/>
          <y:NodeLabel alignment="center" autoSizePolicy="content" fontFamily="Liberation Sans" fontSize="12" fontStyle="plain" hasBackgroundColor="false" hasLineColor="false" height="17.40625" horizontalTextPosition="center" iconTextGap="4" modelName="custom" textColor="#FFFFFF" verticalTextPosition="bottom" visible="true" width="108.712890625" x="7.120354687500026" xml:space="preserve" y="7.008075000000019">Saccharomycetales<y:LabelModel><y:SmartNodeLabelModel distance="4.0"/></y:LabelModel><y:ModelParameter><y:SmartNodeLabelModelParameter labelRatioX="0.0" labelRatioY="0.0" nodeRatioX="0.0" nodeRatioY="0.0" offsetX="0.0" offsetY="0.0" upX="0.0" upY="-1.0"/></y:ModelParameter></y:NodeLabel>
          <y:Shape type="roundrectangle"/>
        </y:ShapeNode>
      </data>
    </node>
    <node id="n20">
      <data key="d6">
        <y:ShapeNode>
          <y:Geometry height="31.42240000000001" width="135.1135999999998" x="883.7" y="436.11999999999995"/>
          <y:Fill color="#495057" transparent="false"/>
          <y:BorderStyle color="#000000" raised="false" type="line" width="1.0"/>
          <y:NodeLabel alignment="center" autoSizePolicy="content" fontFamily="Liberation Sans" fontSize="12" fontStyle="plain" hasBackgroundColor="false" hasLineColor="false" height="17.40625" horizontalTextPosition="center" iconTextGap="4" modelName="custom" textColor="#FFFFFF" verticalTextPosition="bottom" visible="true" width="119.39453125" x="7.859534374999953" xml:space="preserve" y="7.008075000000019">Saccharomycetaceae<y:LabelModel><y:SmartNodeLabelModel distance="4.0"/></y:LabelModel><y:ModelParameter><y:SmartNodeLabelModelParameter labelRatioX="0.0" labelRatioY="0.0" nodeRatioX="0.0" nodeRatioY="0.0" offsetX="0.0" offsetY="0.0" upX="0.0" upY="-1.0"/></y:ModelParameter></y:NodeLabel>
          <y:Shape type="roundrectangle"/>
        </y:ShapeNode>
      </data>
    </node>
    <node id="n21">
      <data key="d6">
        <y:ShapeNode>
          <y:Geometry height="31.42240000000001" width="104.89360000000022" x="898.8099999999997" y="482.34"/>
          <y:Fill color="#343A40" transparent="false"/>
          <y:BorderStyle color="#000000" raised="false" type="line" width="1.0"/>
          <y:NodeLabel alignment="center" autoSizePolicy="content" fontFamily="Liberation Sans" fontSize="12" fontStyle="plain" hasBackgroundColor="false" hasLineColor="false" height="17.40625" horizontalTextPosition="center" iconTextGap="4" modelName="custom" textColor="#FFFFFF" verticalTextPosition="bottom" visible="true" width="89.365234375" x="7.764182812500053" xml:space="preserve" y="7.008075000000019">Saccharomyces<y:LabelModel><y:SmartNodeLabelModel distance="4.0"/></y:LabelModel><y:ModelParameter><y:SmartNodeLabelModelParameter labelRatioX="0.0" labelRatioY="0.0" nodeRatioX="0.0" nodeRatioY="0.0" offsetX="0.0" offsetY="0.0" upX="0.0" upY="-1.0"/></y:ModelParameter></y:NodeLabel>
          <y:Shape type="roundrectangle"/>
        </y:ShapeNode>
      </data>
    </node>
    <node id="n22">
      <data key="d6">
        <y:ShapeNode>
          <y:Geometry height="31.42240000000001" width="164.11359999999968" x="869.2" y="528.56"/>
          <y:Fill color="#000000" transparent="false"/>
          <y:BorderStyle color="#212529" raised="false" type="line" width="1.0"/>
          <y:NodeLabel alignment="center" autoSizePolicy="content" fontFamily="Liberation Sans" fontSize="12" fontStyle="italic" hasBackgroundColor="false" hasLineColor="false" height="17.40625" horizontalTextPosition="center" iconTextGap="4" modelName="custom" textColor="#FFFFFF" verticalTextPosition="bottom" visible="true" width="146.72265625" x="8.69547187499984" xml:space="preserve" y="7.008075000000019">Saccharomyces cerevisiae<y:LabelModel><y:SmartNodeLabelModel distance="4.0"/></y:LabelModel><y:ModelParameter><y:SmartNodeLabelModelParameter labelRatioX="0.0" labelRatioY="0.0" nodeRatioX="0.0" nodeRatioY="0.0" offsetX="0.0" offsetY="0.0" upX="0.0" upY="-1.0"/></y:ModelParameter></y:NodeLabel>
          <y:Shape type="roundrectangle"/>
        </y:ShapeNode>
      </data>
    </node>
    <node id="n23">
      <data key="d6">
        <y:ShapeNode>
          <y:Geometry height="31.42240000000001" width="82.75359999999989" x="1261.6168000000007" y="343.6799999999999"/>
          <y:Fill color="#ADB5BD" transparent="false"/>
          <y:BorderStyle color="#000000" raised="false" type="line" width="1.0"/>
          <y:NodeLabel alignment="center" autoSizePolicy="content" fontFamily="Liberation Sans" fontSize="12" fontStyle="plain" hasBackgroundColor="false" hasLineColor="false" height="17.40625" horizontalTextPosition="center" iconTextGap="4" modelName="custom" textColor="#000000" verticalTextPosition="bottom" visible="true" width="70.71484375" x="6.019378125000003" xml:space="preserve" y="7.008075000000019">Conoidasida<y:LabelModel><y:SmartNodeLabelModel distance="4.0"/></y:LabelModel><y:ModelParameter><y:SmartNodeLabelModelParameter labelRatioX="0.0" labelRatioY="0.0" nodeRatioX="0.0" nodeRatioY="0.0" offsetX="0.0" offsetY="0.0" upX="0.0" upY="-1.0"/></y:ModelParameter></y:NodeLabel>
          <y:Shape type="roundrectangle"/>
        </y:ShapeNode>
      </data>
    </node>
    <node id="n24">
      <data key="d6">
        <y:ShapeNode>
          <y:Geometry height="31.42240000000001" width="93.95359999999994" x="1256.0168000000006" y="389.8999999999999"/>
          <y:Fill color="#6C757D" transparent="false"/>
          <y:BorderStyle color="#000000" raised="false" type="line" width="1.0"/>
          <y:NodeLabel alignment="center" autoSizePolicy="content" fontFamily="Liberation Sans" fontSize="12" fontStyle="plain" hasBackgroundColor="false" hasLineColor="false" height="17.40625" horizontalTextPosition="center" iconTextGap="4" modelName="custom" textColor="#FFFFFF" verticalTextPosition="bottom" visible="true" width="82.041015625" x="5.956292187499912" xml:space="preserve" y="7.008075000000019">Eucoccidiorida<y:LabelModel><y:SmartNodeLabelModel distance="4.0"/></y:LabelModel><y:ModelParameter><y:SmartNodeLabelModelParameter labelRatioX="0.0" labelRatioY="0.0" nodeRatioX="0.0" nodeRatioY="0.0" offsetX="0.0" offsetY="0.0" upX="0.0" upY="-1.0"/></y:ModelParameter></y:NodeLabel>
          <y:Shape type="roundrectangle"/>
        </y:ShapeNode>
      </data>
    </node>
    <node id="n25">
      <data key="d6">
        <y:ShapeNode>
          <y:Geometry height="31.42240000000001" width="101.55360000000098" x="1252.2168" y="436.11999999999995"/>
          <y:Fill color="#495057" transparent="false"/>
          <y:BorderStyle color="#000000" raised="false" type="line" width="1.0"/>
          <y:NodeLabel alignment="center" autoSizePolicy="content" fontFamily="Liberation Sans" fontSize="12" fontStyle="plain" hasBackgroundColor="false" hasLineColor="false" height="17.40625" horizontalTextPosition="center" iconTextGap="4" modelName="custom" textColor="#FFFFFF" verticalTextPosition="bottom" visible="true" width="79.369140625" x="11.092229687500549" xml:space="preserve" y="7.008075000000019">Sarcocystidae<y:LabelModel><y:SmartNodeLabelModel distance="4.0"/></y:LabelModel><y:ModelParameter><y:SmartNodeLabelModelParameter labelRatioX="0.0" labelRatioY="0.0" nodeRatioX="0.0" nodeRatioY="0.0" offsetX="0.0" offsetY="0.0" upX="0.0" upY="-1.0"/></y:ModelParameter></y:NodeLabel>
          <y:Shape type="roundrectangle"/>
        </y:ShapeNode>
      </data>
    </node>
    <node id="n26">
      <data key="d6">
        <y:ShapeNode>
          <y:Geometry height="31.42240000000001" width="88.3535999999998" x="1258.8168000000005" y="482.34"/>
          <y:Fill color="#343A40" transparent="false"/>
          <y:BorderStyle color="#000000" raised="false" type="line" width="1.0"/>
          <y:NodeLabel alignment="center" autoSizePolicy="content" fontFamily="Liberation Sans" fontSize="12" fontStyle="plain" hasBackgroundColor="false" hasLineColor="false" height="17.40625" horizontalTextPosition="center" iconTextGap="4" modelName="custom" textColor="#FFFFFF" verticalTextPosition="bottom" visible="true" width="69.361328125" x="9.496135937499957" xml:space="preserve" y="7.008075000000019">Toxoplasma<y:LabelModel><y:SmartNodeLabelModel distance="4.0"/></y:LabelModel><y:ModelParameter><y:SmartNodeLabelModelParameter labelRatioX="0.0" labelRatioY="0.0" nodeRatioX="0.0" nodeRatioY="0.0" offsetX="0.0" offsetY="0.0" upX="0.0" upY="-1.0"/></y:ModelParameter></y:NodeLabel>
          <y:Shape type="roundrectangle"/>
        </y:ShapeNode>
      </data>
    </node>
    <node id="n27">
      <data key="d6">
        <y:ShapeNode>
          <y:Geometry height="31.42240000000001" width="130.11359999999968" x="1237.9368000000006" y="528.56"/>
          <y:Fill color="#000000" transparent="false"/>
          <y:BorderStyle color="#212529" raised="false" type="line" width="1.0"/>
          <y:NodeLabel alignment="center" autoSizePolicy="content" fontFamily="Liberation Sans" fontSize="12" fontStyle="italic" hasBackgroundColor="false" hasLineColor="false" height="17.40625" horizontalTextPosition="center" iconTextGap="4" modelName="custom" textColor="#FFFFFF" verticalTextPosition="bottom" visible="true" width="104.72265625" x="12.69547187499984" xml:space="preserve" y="7.008075000000019">Toxoplasma gondii<y:LabelModel><y:SmartNodeLabelModel distance="4.0"/></y:LabelModel><y:ModelParameter><y:SmartNodeLabelModelParameter labelRatioX="0.0" labelRatioY="0.0" nodeRatioX="0.0" nodeRatioY="0.0" offsetX="0.0" offsetY="0.0" upX="0.0" upY="-1.0"/></y:ModelParameter></y:NodeLabel>
          <y:Shape type="roundrectangle"/>
        </y:ShapeNode>
      </data>
    </node>
    <node id="n28">
      <data key="d6">
        <y:ShapeNode>
          <y:Geometry height="31.42240000000001" width="135.1135999999998" x="718.5864000000004" y="343.6799999999999"/>
          <y:Fill color="#ADB5BD" transparent="false"/>
          <y:BorderStyle color="#000000" raised="false" type="line" width="1.0"/>
          <y:NodeLabel alignment="center" autoSizePolicy="content" fontFamily="Liberation Sans" fontSize="12" fontStyle="plain" hasBackgroundColor="false" hasLineColor="false" height="17.40625" horizontalTextPosition="center" iconTextGap="4" modelName="custom" textColor="#000000" verticalTextPosition="bottom" visible="true" width="130.720703125" x="2.196448437499839" xml:space="preserve" y="7.008075000000019">Pneumocystidomycetes<y:LabelModel><y:SmartNodeLabelModel distance="4.0"/></y:LabelModel><y:ModelParameter><y:SmartNodeLabelModelParameter labelRatioX="0.0" labelRatioY="0.0" nodeRatioX="0.0" nodeRatioY="0.0" offsetX="0.0" offsetY="0.0" upX="0.0" upY="-1.0"/></y:ModelParameter></y:NodeLabel>
          <y:Shape type="roundrectangle"/>
        </y:ShapeNode>
      </data>
    </node>
    <node id="n29">
      <data key="d6">
        <y:ShapeNode>
          <y:Geometry height="31.42240000000001" width="104.89360000000033" x="733.6964" y="388.1000000000002"/>
          <y:Fill color="#6C757D" transparent="false"/>
          <y:BorderStyle color="#000000" raised="false" type="line" width="1.0"/>
          <y:NodeLabel alignment="center" autoSizePolicy="content" fontFamily="Liberation Sans" fontSize="12" fontStyle="plain" hasBackgroundColor="false" hasLineColor="false" height="17.40625" horizontalTextPosition="center" iconTextGap="4" modelName="custom" textColor="#FFFFFF" verticalTextPosition="bottom" visible="true" width="101.3828125" x="1.7553937500001666" xml:space="preserve" y="7.008075000000019">Pneumocystidales<y:LabelModel><y:SmartNodeLabelModel distance="4.0"/></y:LabelModel><y:ModelParameter><y:SmartNodeLabelModelParameter labelRatioX="0.0" labelRatioY="0.0" nodeRatioX="0.0" nodeRatioY="0.0" offsetX="0.0" offsetY="0.0" upX="0.0" upY="-1.0"/></y:ModelParameter></y:NodeLabel>
          <y:Shape type="roundrectangle"/>
        </y:ShapeNode>
      </data>
    </node>
    <node id="n30">
      <data key="d6">
        <y:ShapeNode>
          <y:Geometry height="31.42240000000001" width="88.3535999999998" x="741.9664000000004" y="482.34"/>
          <y:Fill color="#343A40" transparent="false"/>
          <y:BorderStyle color="#000000" raised="false" type="line" width="1.0"/>
          <y:NodeLabel alignment="center" autoSizePolicy="content" fontFamily="Liberation Sans" fontSize="12" fontStyle="plain" hasBackgroundColor="false" hasLineColor="false" height="17.40625" horizontalTextPosition="center" iconTextGap="4" modelName="custom" textColor="#FFFFFF" verticalTextPosition="bottom" visible="true" width="78.6953125" x="4.829143749999844" xml:space="preserve" y="7.008075000000019">Pneumocystis<y:LabelModel><y:SmartNodeLabelModel distance="4.0"/></y:LabelModel><y:ModelParameter><y:SmartNodeLabelModelParameter labelRatioX="0.0" labelRatioY="0.0" nodeRatioX="0.0" nodeRatioY="0.0" offsetX="0.0" offsetY="0.0" upX="0.0" upY="-1.0"/></y:ModelParameter></y:NodeLabel>
          <y:Shape type="roundrectangle"/>
        </y:ShapeNode>
      </data>
    </node>
    <node id="n31">
      <data key="d6">
        <y:ShapeNode>
          <y:Geometry height="31.42240000000001" width="134.5036" x="718.8914000000003" y="528.56"/>
          <y:Fill color="#000000" transparent="false"/>
          <y:BorderStyle color="#212529" raised="false" type="line" width="1.0"/>
          <y:NodeLabel alignment="center" autoSizePolicy="content" fontFamily="Liberation Sans" fontSize="12" fontStyle="italic" hasBackgroundColor="false" hasLineColor="false" height="17.40625" horizontalTextPosition="center" iconTextGap="4" modelName="custom" textColor="#FFFFFF" verticalTextPosition="bottom" visible="true" width="122.037109375" x="6.233245312500003" xml:space="preserve" y="7.008075000000019">Pneumocystis jirovecii<y:LabelModel><y:SmartNodeLabelModel distance="4.0"/></y:LabelModel><y:ModelParameter><y:SmartNodeLabelModelParameter labelRatioX="0.0" labelRatioY="0.0" nodeRatioX="0.0" nodeRatioY="0.0" offsetX="0.0" offsetY="0.0" upX="0.0" upY="-1.0"/></y:ModelParameter></y:NodeLabel>
          <y:Shape type="roundrectangle"/>
        </y:ShapeNode>
      </data>
    </node>
    <node id="n32">
      <data key="d6">
        <y:ShapeNode>
          <y:Geometry height="31.42240000000001" width="115.83360000000039" x="589.2928000000003" y="343.6799999999999"/>
          <y:Fill color="#ADB5BD" transparent="false"/>
          <y:BorderStyle color="#000000" raised="false" type="line" width="1.0"/>
          <y:NodeLabel alignment="center" autoSizePolicy="content" fontFamily="Liberation Sans" fontSize="12" fontStyle="plain" hasBackgroundColor="false" hasLineColor="false" height="17.40625" horizontalTextPosition="center" iconTextGap="4" modelName="custom" textColor="#000000" verticalTextPosition="bottom" visible="true" width="96.0390625" x="9.897268750000194" xml:space="preserve" y="7.008075000000019">Taphrinomycetes<y:LabelModel><y:SmartNodeLabelModel distance="4.0"/></y:LabelModel><y:ModelParameter><y:SmartNodeLabelModelParameter labelRatioX="0.0" labelRatioY="0.0" nodeRatioX="0.0" nodeRatioY="0.0" offsetX="0.0" offsetY="0.0" upX="0.0" upY="-1.0"/></y:ModelParameter></y:NodeLabel>
          <y:Shape type="roundrectangle"/>
        </y:ShapeNode>
      </data>
    </node>
    <node id="n33">
      <data key="d6">
        <y:ShapeNode>
          <y:Geometry height="31.42240000000001" width="82.75359999999989" x="605.8328000000005" y="389.8999999999999"/>
          <y:Fill color="#6C757D" transparent="false"/>
          <y:BorderStyle color="#000000" raised="false" type="line" width="1.0"/>
          <y:NodeLabel alignment="center" autoSizePolicy="content" fontFamily="Liberation Sans" fontSize="12" fontStyle="plain" hasBackgroundColor="false" hasLineColor="false" height="17.40625" horizontalTextPosition="center" iconTextGap="4" modelName="custom" textColor="#FFFFFF" verticalTextPosition="bottom" visible="true" width="66.701171875" x="8.026214062500003" xml:space="preserve" y="7.008075000000019">Taphrinales<y:LabelModel><y:SmartNodeLabelModel distance="4.0"/></y:LabelModel><y:ModelParameter><y:SmartNodeLabelModelParameter labelRatioX="0.0" labelRatioY="0.0" nodeRatioX="0.0" nodeRatioY="0.0" offsetX="0.0" offsetY="0.0" upX="0.0" upY="-1.0"/></y:ModelParameter></y:NodeLabel>
          <y:Shape type="roundrectangle"/>
        </y:ShapeNode>
      </data>
    </node>
    <node id="n34">
      <data key="d6">
        <y:ShapeNode>
          <y:Geometry height="31.42240000000001" width="93.95359999999994" x="600.2328000000006" y="436.11999999999995"/>
          <y:Fill color="#495057" transparent="false"/>
          <y:BorderStyle color="#000000" raised="false" type="line" width="1.0"/>
          <y:NodeLabel alignment="center" autoSizePolicy="content" fontFamily="Liberation Sans" fontSize="12" fontStyle="plain" hasBackgroundColor="false" hasLineColor="false" height="17.40625" horizontalTextPosition="center" iconTextGap="4" modelName="custom" textColor="#FFFFFF" verticalTextPosition="bottom" visible="true" width="77.3828125" x="8.285393749999912" xml:space="preserve" y="7.008075000000019">Taphrinaceae<y:LabelModel><y:SmartNodeLabelModel distance="4.0"/></y:LabelModel><y:ModelParameter><y:SmartNodeLabelModelParameter labelRatioX="0.0" labelRatioY="0.0" nodeRatioX="0.0" nodeRatioY="0.0" offsetX="0.0" offsetY="0.0" upX="0.0" upY="-1.0"/></y:ModelParameter></y:NodeLabel>
          <y:Shape type="roundrectangle"/>
        </y:ShapeNode>
      </data>
    </node>
    <node id="n35">
      <data key="d6">
        <y:ShapeNode>
          <y:Geometry height="31.42240000000001" width="71.55360000000007" x="611.4328000000004" y="482.34"/>
          <y:Fill color="#343A40" transparent="false"/>
          <y:BorderStyle color="#000000" raised="false" type="line" width="1.0"/>
          <y:NodeLabel alignment="center" autoSizePolicy="content" fontFamily="Liberation Sans" fontSize="12" fontStyle="plain" hasBackgroundColor="false" hasLineColor="false" height="17.40625" horizontalTextPosition="center" iconTextGap="4" modelName="custom" textColor="#FFFFFF" verticalTextPosition="bottom" visible="true" width="51.361328125" x="10.096135937500094" xml:space="preserve" y="7.008075000000019">Taphrina<y:LabelModel><y:SmartNodeLabelModel distance="4.0"/></y:LabelModel><y:ModelParameter><y:SmartNodeLabelModelParameter labelRatioX="0.0" labelRatioY="0.0" nodeRatioX="0.0" nodeRatioY="0.0" offsetX="0.0" offsetY="0.0" upX="0.0" upY="-1.0"/></y:ModelParameter></y:NodeLabel>
          <y:Shape type="roundrectangle"/>
        </y:ShapeNode>
      </data>
    </node>
    <node id="n36">
      <data key="d6">
        <y:ShapeNode>
          <y:Geometry height="31.42240000000001" width="93.95360000000005" x="600.2328000000003" y="528.56"/>
          <y:Fill color="#000000" transparent="false"/>
          <y:BorderStyle color="#212529" raised="false" type="line" width="1.0"/>
          <y:NodeLabel alignment="center" autoSizePolicy="content" fontFamily="Liberation Sans" fontSize="12" fontStyle="italic" hasBackgroundColor="false" hasLineColor="false" height="17.40625" horizontalTextPosition="center" iconTextGap="4" modelName="custom" textColor="#FFFFFF" verticalTextPosition="bottom" visible="true" width="73.375" x="10.289300000000026" xml:space="preserve" y="7.008075000000019">Taphrina alni<y:LabelModel><y:SmartNodeLabelModel distance="4.0"/></y:LabelModel><y:ModelParameter><y:SmartNodeLabelModelParameter labelRatioX="0.0" labelRatioY="0.0" nodeRatioX="0.0" nodeRatioY="0.0" offsetX="0.0" offsetY="0.0" upX="0.0" upY="-1.0"/></y:ModelParameter></y:NodeLabel>
          <y:Shape type="roundrectangle"/>
        </y:ShapeNode>
      </data>
    </node>
    <node id="n37">
      <data key="d6">
        <y:ShapeNode>
          <y:Geometry height="30.0" width="30.0" x="672.9163999999998" y="546.7823999999998"/>
          <y:Fill color="#FFCC00" transparent="false"/>
          <y:BorderStyle color="#212529" raised="false" type="line" width="1.0"/>
          <y:NodeLabel alignment="center" autoSizePolicy="content" fontFamily="Liberation Sans" fontSize="12" fontStyle="plain" hasBackgroundColor="false" hasLineColor="false" hasText="false" height="4.0" horizontalTextPosition="center" iconTextGap="4" modelName="custom" textColor="#000000" verticalTextPosition="bottom" visible="true" width="4.0" x="13.0" y="13.000000000000057">
            <y:LabelModel>
              <y:SmartNodeLabelModel distance="4.0"/>
            </y:LabelModel>
            <y:ModelParameter>
              <y:SmartNodeLabelModelParameter labelRatioX="0.0" labelRatioY="0.0" nodeRatioX="0.0" nodeRatioY="0.0" offsetX="0.0" offsetY="0.0" upX="0.0" upY="-1.0"/>
            </y:ModelParameter>
          </y:NodeLabel>
          <y:Shape type="star5"/>
        </y:ShapeNode>
      </data>
    </node>
    <node id="n38">
      <data key="d6">
        <y:ShapeNode>
          <y:Geometry height="31.42240000000001" width="120.0036" x="726.1414000000002" y="436.11999999999995"/>
          <y:Fill color="#495057" transparent="false"/>
          <y:BorderStyle color="#000000" raised="false" type="line" width="1.0"/>
          <y:NodeLabel alignment="center" autoSizePolicy="content" fontFamily="Liberation Sans" fontSize="12" fontStyle="plain" hasBackgroundColor="false" hasLineColor="false" height="17.40625" horizontalTextPosition="center" iconTextGap="4" modelName="custom" textColor="#FFFFFF" verticalTextPosition="bottom" visible="true" width="112.064453125" x="3.969573437500003" xml:space="preserve" y="7.008075000000019">Pneumocystidaceae<y:LabelModel><y:SmartNodeLabelModel distance="4.0"/></y:LabelModel><y:ModelParameter><y:SmartNodeLabelModelParameter labelRatioX="0.0" labelRatioY="0.0" nodeRatioX="0.0" nodeRatioY="0.0" offsetX="0.0" offsetY="0.0" upX="0.0" upY="-1.0"/></y:ModelParameter></y:NodeLabel>
          <y:Shape type="roundrectangle"/>
        </y:ShapeNode>
      </data>
    </node>
    <node id="n39">
      <data key="d6">
        <y:ShapeNode>
          <y:Geometry height="31.42240000000001" width="93.95359999999971" x="469.39920000000075" y="295.66000000000014"/>
          <y:Fill color="#CED4DA" transparent="false"/>
          <y:BorderStyle color="#000000" raised="false" type="dashed" width="1.0"/>
          <y:NodeLabel alignment="center" autoSizePolicy="content" fontFamily="Liberation Sans" fontSize="12" fontStyle="plain" hasBackgroundColor="false" hasLineColor="false" height="17.40625" horizontalTextPosition="center" iconTextGap="4" modelName="custom" textColor="#000000" verticalTextPosition="bottom" visible="true" width="92.705078125" x="0.624260937499912" xml:space="preserve" y="7.008075000000019">Agaricomycotina<y:LabelModel><y:SmartNodeLabelModel distance="4.0"/></y:LabelModel><y:ModelParameter><y:SmartNodeLabelModelParameter labelRatioX="0.0" labelRatioY="0.0" nodeRatioX="0.0" nodeRatioY="0.0" offsetX="0.0" offsetY="0.0" upX="0.0" upY="-1.0"/></y:ModelParameter></y:NodeLabel>
          <y:Shape type="roundrectangle"/>
        </y:ShapeNode>
      </data>
    </node>
    <node id="n40">
      <data key="d6">
        <y:ShapeNode>
          <y:Geometry height="31.42240000000001" width="104.89359999999999" x="661.701200000001" y="297.46"/>
          <y:Fill color="#CED4DA" transparent="false"/>
          <y:BorderStyle color="#000000" raised="false" type="dashed" width="1.0"/>
          <y:NodeLabel alignment="center" autoSizePolicy="content" fontFamily="Liberation Sans" fontSize="12" fontStyle="plain" hasBackgroundColor="false" hasLineColor="false" height="17.40625" horizontalTextPosition="center" iconTextGap="4" modelName="custom" textColor="#000000" verticalTextPosition="bottom" visible="true" width="99.37890625" x="2.757346875000053" xml:space="preserve" y="7.008075000000019">Taphrinomycotina<y:LabelModel><y:SmartNodeLabelModel distance="4.0"/></y:LabelModel><y:ModelParameter><y:SmartNodeLabelModelParameter labelRatioX="0.0" labelRatioY="0.0" nodeRatioX="0.0" nodeRatioY="0.0" offsetX="0.0" offsetY="0.0" upX="0.0" upY="-1.0"/></y:ModelParameter></y:NodeLabel>
          <y:Shape type="roundrectangle"/>
        </y:ShapeNode>
      </data>
    </node>
    <node id="n41">
      <data key="d6">
        <y:ShapeNode>
          <y:Geometry height="31.42240000000001" width="111.20000000000073" x="895.6567999999995" y="295.66000000000014"/>
          <y:Fill color="#CED4DA" transparent="false"/>
          <y:BorderStyle color="#000000" raised="false" type="dashed" width="1.0"/>
          <y:NodeLabel alignment="center" autoSizePolicy="content" fontFamily="Liberation Sans" fontSize="12" fontStyle="plain" hasBackgroundColor="false" hasLineColor="false" height="17.40625" horizontalTextPosition="center" iconTextGap="4" modelName="custom" textColor="#000000" verticalTextPosition="bottom" visible="true" width="102.712890625" x="4.243554687500364" xml:space="preserve" y="7.0080749999999625">Saccharomycotina<y:LabelModel><y:SmartNodeLabelModel distance="4.0"/></y:LabelModel><y:ModelParameter><y:SmartNodeLabelModelParameter labelRatioX="0.0" labelRatioY="0.0" nodeRatioX="0.0" nodeRatioY="0.0" offsetX="0.0" offsetY="0.0" upX="0.0" upY="-1.0"/></y:ModelParameter></y:NodeLabel>
          <y:Shape type="roundrectangle"/>
        </y:ShapeNode>
      </data>
    </node>
    <edge id="e0" source="n0" target="n1">
      <data key="d10">
        <y:PolyLineEdge>
          <y:Path sx="0.0" sy="0.0" tx="0.0" ty="0.0"/>
          <y:LineStyle color="#000000" type="line" width="1.0"/>
          <y:Arrows source="none" target="none"/>
          <y:BendStyle smoothed="false"/>
        </y:PolyLineEdge>
      </data>
    </edge>
    <edge id="e1" source="n1" target="n2">
      <data key="d10">
        <y:PolyLineEdge>
          <y:Path sx="0.0" sy="0.0" tx="0.0" ty="0.0"/>
          <y:LineStyle color="#000000" type="line" width="1.0"/>
          <y:Arrows source="none" target="none"/>
          <y:BendStyle smoothed="false"/>
        </y:PolyLineEdge>
      </data>
    </edge>
    <edge id="e2" source="n2" target="n8">
      <data key="d10">
        <y:PolyLineEdge>
          <y:Path sx="0.0" sy="0.0" tx="0.0" ty="0.0"/>
          <y:LineStyle color="#000000" type="line" width="1.0"/>
          <y:Arrows source="none" target="none"/>
          <y:BendStyle smoothed="false"/>
        </y:PolyLineEdge>
      </data>
    </edge>
    <edge id="e3" source="n8" target="n9">
      <data key="d10">
        <y:PolyLineEdge>
          <y:Path sx="0.0" sy="0.0" tx="0.0" ty="0.0"/>
          <y:LineStyle color="#000000" type="line" width="1.0"/>
          <y:Arrows source="none" target="none"/>
          <y:BendStyle smoothed="false"/>
        </y:PolyLineEdge>
      </data>
    </edge>
    <edge id="e4" source="n9" target="n10">
      <data key="d10">
        <y:PolyLineEdge>
          <y:Path sx="0.0" sy="0.0" tx="0.0" ty="0.0"/>
          <y:LineStyle color="#000000" type="line" width="1.0"/>
          <y:Arrows source="none" target="none"/>
          <y:BendStyle smoothed="false"/>
        </y:PolyLineEdge>
      </data>
    </edge>
    <edge id="e5" source="n10" target="n11">
      <data key="d10">
        <y:PolyLineEdge>
          <y:Path sx="0.0" sy="0.0" tx="0.0" ty="0.0"/>
          <y:LineStyle color="#000000" type="line" width="1.0"/>
          <y:Arrows source="none" target="none"/>
          <y:BendStyle smoothed="false"/>
        </y:PolyLineEdge>
      </data>
    </edge>
    <edge id="e6" source="n11" target="n12">
      <data key="d10">
        <y:PolyLineEdge>
          <y:Path sx="0.0" sy="0.0" tx="0.0" ty="0.0"/>
          <y:LineStyle color="#000000" type="line" width="1.0"/>
          <y:Arrows source="none" target="none"/>
          <y:BendStyle smoothed="false"/>
        </y:PolyLineEdge>
      </data>
    </edge>
    <edge id="e7" source="n13" target="n14">
      <data key="d10">
        <y:PolyLineEdge>
          <y:Path sx="0.0" sy="0.0" tx="0.0" ty="0.0"/>
          <y:LineStyle color="#000000" type="line" width="1.0"/>
          <y:Arrows source="none" target="none"/>
          <y:BendStyle smoothed="false"/>
        </y:PolyLineEdge>
      </data>
    </edge>
    <edge id="e8" source="n14" target="n15">
      <data key="d10">
        <y:PolyLineEdge>
          <y:Path sx="0.0" sy="0.0" tx="0.0" ty="0.0"/>
          <y:LineStyle color="#000000" type="line" width="1.0"/>
          <y:Arrows source="none" target="none"/>
          <y:BendStyle smoothed="false"/>
        </y:PolyLineEdge>
      </data>
    </edge>
    <edge id="e9" source="n15" target="n16">
      <data key="d10">
        <y:PolyLineEdge>
          <y:Path sx="0.0" sy="0.0" tx="0.0" ty="0.0"/>
          <y:LineStyle color="#000000" type="line" width="1.0"/>
          <y:Arrows source="none" target="none"/>
          <y:BendStyle smoothed="false"/>
        </y:PolyLineEdge>
      </data>
    </edge>
    <edge id="e10" source="n16" target="n17">
      <data key="d10">
        <y:PolyLineEdge>
          <y:Path sx="0.0" sy="0.0" tx="0.0" ty="0.0"/>
          <y:LineStyle color="#000000" type="line" width="1.0"/>
          <y:Arrows source="none" target="none"/>
          <y:BendStyle smoothed="false"/>
        </y:PolyLineEdge>
      </data>
    </edge>
    <edge id="e11" source="n4" target="n5">
      <data key="d10">
        <y:PolyLineEdge>
          <y:Path sx="0.0" sy="0.0" tx="0.0" ty="0.0"/>
          <y:LineStyle color="#000000" type="line" width="1.0"/>
          <y:Arrows source="none" target="none"/>
          <y:BendStyle smoothed="false"/>
        </y:PolyLineEdge>
      </data>
    </edge>
    <edge id="e12" source="n0" target="n4">
      <data key="d10">
        <y:PolyLineEdge>
          <y:Path sx="0.0" sy="0.0" tx="0.0" ty="0.0"/>
          <y:LineStyle color="#000000" type="line" width="1.0"/>
          <y:Arrows source="none" target="none"/>
          <y:BendStyle smoothed="false"/>
        </y:PolyLineEdge>
      </data>
    </edge>
    <edge id="e13" source="n18" target="n19">
      <data key="d10">
        <y:PolyLineEdge>
          <y:Path sx="0.0" sy="0.0" tx="0.0" ty="0.0"/>
          <y:LineStyle color="#000000" type="line" width="1.0"/>
          <y:Arrows source="none" target="none"/>
          <y:BendStyle smoothed="false"/>
        </y:PolyLineEdge>
      </data>
    </edge>
    <edge id="e14" source="n19" target="n20">
      <data key="d10">
        <y:PolyLineEdge>
          <y:Path sx="0.0" sy="0.0" tx="0.0" ty="0.0"/>
          <y:LineStyle color="#000000" type="line" width="1.0"/>
          <y:Arrows source="none" target="none"/>
          <y:BendStyle smoothed="false"/>
        </y:PolyLineEdge>
      </data>
    </edge>
    <edge id="e15" source="n20" target="n21">
      <data key="d10">
        <y:PolyLineEdge>
          <y:Path sx="0.0" sy="0.0" tx="0.0" ty="0.0"/>
          <y:LineStyle color="#000000" type="line" width="1.0"/>
          <y:Arrows source="none" target="none"/>
          <y:BendStyle smoothed="false"/>
        </y:PolyLineEdge>
      </data>
    </edge>
    <edge id="e16" source="n21" target="n22">
      <data key="d10">
        <y:PolyLineEdge>
          <y:Path sx="0.0" sy="0.0" tx="0.0" ty="0.0"/>
          <y:LineStyle color="#000000" type="line" width="1.0"/>
          <y:Arrows source="none" target="none"/>
          <y:BendStyle smoothed="false"/>
        </y:PolyLineEdge>
      </data>
    </edge>
    <edge id="e17" source="n4" target="n6">
      <data key="d10">
        <y:PolyLineEdge>
          <y:Path sx="0.0" sy="0.0" tx="0.0" ty="0.0"/>
          <y:LineStyle color="#000000" type="line" width="1.0"/>
          <y:Arrows source="none" target="none"/>
          <y:BendStyle smoothed="false"/>
        </y:PolyLineEdge>
      </data>
    </edge>
    <edge id="e18" source="n7" target="n23">
      <data key="d10">
        <y:PolyLineEdge>
          <y:Path sx="0.0" sy="0.0" tx="0.0" ty="0.0"/>
          <y:LineStyle color="#000000" type="line" width="1.0"/>
          <y:Arrows source="none" target="none"/>
          <y:BendStyle smoothed="false"/>
        </y:PolyLineEdge>
      </data>
    </edge>
    <edge id="e19" source="n23" target="n24">
      <data key="d10">
        <y:PolyLineEdge>
          <y:Path sx="0.0" sy="0.0" tx="0.0" ty="0.0"/>
          <y:LineStyle color="#000000" type="line" width="1.0"/>
          <y:Arrows source="none" target="none"/>
          <y:BendStyle smoothed="false"/>
        </y:PolyLineEdge>
      </data>
    </edge>
    <edge id="e20" source="n24" target="n25">
      <data key="d10">
        <y:PolyLineEdge>
          <y:Path sx="0.0" sy="0.0" tx="0.0" ty="0.0"/>
          <y:LineStyle color="#000000" type="line" width="1.0"/>
          <y:Arrows source="none" target="none"/>
          <y:BendStyle smoothed="false"/>
        </y:PolyLineEdge>
      </data>
    </edge>
    <edge id="e21" source="n25" target="n26">
      <data key="d10">
        <y:PolyLineEdge>
          <y:Path sx="0.0" sy="0.0" tx="0.0" ty="0.0"/>
          <y:LineStyle color="#000000" type="line" width="1.0"/>
          <y:Arrows source="none" target="none"/>
          <y:BendStyle smoothed="false"/>
        </y:PolyLineEdge>
      </data>
    </edge>
    <edge id="e22" source="n26" target="n27">
      <data key="d10">
        <y:PolyLineEdge>
          <y:Path sx="0.0" sy="0.0" tx="0.0" ty="0.0"/>
          <y:LineStyle color="#000000" type="line" width="1.0"/>
          <y:Arrows source="none" target="none"/>
          <y:BendStyle smoothed="false"/>
        </y:PolyLineEdge>
      </data>
    </edge>
    <edge id="e23" source="n28" target="n29">
      <data key="d10">
        <y:PolyLineEdge>
          <y:Path sx="0.0" sy="0.0" tx="0.0" ty="0.0"/>
          <y:LineStyle color="#FF0000" type="line" width="2.0"/>
          <y:Arrows source="none" target="standard"/>
          <y:BendStyle smoothed="false"/>
        </y:PolyLineEdge>
      </data>
    </edge>
    <edge id="e24" source="n30" target="n31">
      <data key="d10">
        <y:PolyLineEdge>
          <y:Path sx="0.0" sy="0.0" tx="0.0" ty="0.0"/>
          <y:LineStyle color="#FF0000" type="line" width="2.0"/>
          <y:Arrows source="none" target="standard"/>
          <y:BendStyle smoothed="false"/>
        </y:PolyLineEdge>
      </data>
    </edge>
    <edge id="e25" source="n32" target="n33">
      <data key="d10">
        <y:PolyLineEdge>
          <y:Path sx="0.0" sy="0.0" tx="0.0" ty="0.0"/>
          <y:LineStyle color="#FF0000" type="line" width="2.0"/>
          <y:Arrows source="standard" target="none"/>
          <y:BendStyle smoothed="false"/>
        </y:PolyLineEdge>
      </data>
    </edge>
    <edge id="e26" source="n33" target="n34">
      <data key="d10">
        <y:PolyLineEdge>
          <y:Path sx="0.0" sy="0.0" tx="0.0" ty="0.0"/>
          <y:LineStyle color="#FF0000" type="line" width="2.0"/>
          <y:Arrows source="standard" target="none"/>
          <y:BendStyle smoothed="false"/>
        </y:PolyLineEdge>
      </data>
    </edge>
    <edge id="e27" source="n34" target="n35">
      <data key="d10">
        <y:PolyLineEdge>
          <y:Path sx="0.0" sy="0.0" tx="0.0" ty="0.0"/>
          <y:LineStyle color="#FF0000" type="line" width="2.0"/>
          <y:Arrows source="standard" target="none"/>
          <y:BendStyle smoothed="false"/>
        </y:PolyLineEdge>
      </data>
    </edge>
    <edge id="e28" source="n35" target="n36">
      <data key="d10">
        <y:PolyLineEdge>
          <y:Path sx="0.0" sy="0.0" tx="0.0" ty="0.0"/>
          <y:LineStyle color="#FF0000" type="line" width="2.0"/>
          <y:Arrows source="standard" target="none"/>
          <y:BendStyle smoothed="false"/>
        </y:PolyLineEdge>
      </data>
    </edge>
    <edge id="e29" source="n0" target="n7">
      <data key="d10">
        <y:ArcEdge>
          <y:Path sx="0.0" sy="0.0" tx="0.0" ty="0.0">
            <y:Point x="1142.9207763671875" y="187.7939910888672"/>
          </y:Path>
          <y:LineStyle color="#000000" type="line" width="1.0"/>
          <y:Arrows source="none" target="none"/>
          <y:Arc height="32.285945892333984" ratio="0.369343638420105" type="fixedRatio"/>
        </y:ArcEdge>
      </data>
    </edge>
    <edge id="e30" source="n29" target="n38">
      <data key="d10">
        <y:PolyLineEdge>
          <y:Path sx="0.0" sy="0.0" tx="0.0" ty="0.0"/>
          <y:LineStyle color="#FF0000" type="line" width="2.0"/>
          <y:Arrows source="none" target="standard"/>
          <y:BendStyle smoothed="false"/>
        </y:PolyLineEdge>
      </data>
    </edge>
    <edge id="e31" source="n38" target="n30">
      <data key="d10">
        <y:PolyLineEdge>
          <y:Path sx="0.0" sy="0.0" tx="0.0" ty="0.0"/>
          <y:LineStyle color="#FF0000" type="line" width="2.0"/>
          <y:Arrows source="none" target="standard"/>
          <y:BendStyle smoothed="false"/>
        </y:PolyLineEdge>
      </data>
    </edge>
    <edge id="e32" source="n5" target="n39">
      <data key="d9"/>
      <data key="d10">
        <y:PolyLineEdge>
          <y:Path sx="0.0" sy="0.0" tx="0.0" ty="0.0"/>
          <y:LineStyle color="#000000" type="line" width="1.0"/>
          <y:Arrows source="none" target="none"/>
          <y:BendStyle smoothed="false"/>
        </y:PolyLineEdge>
      </data>
    </edge>
    <edge id="e33" source="n39" target="n13">
      <data key="d9"/>
      <data key="d10">
        <y:PolyLineEdge>
          <y:Path sx="0.0" sy="0.0" tx="0.0" ty="0.0"/>
          <y:LineStyle color="#000000" type="line" width="1.0"/>
          <y:Arrows source="none" target="none"/>
          <y:BendStyle smoothed="false"/>
        </y:PolyLineEdge>
      </data>
    </edge>
    <edge id="e34" source="n41" target="n18">
      <data key="d9"/>
      <data key="d10">
        <y:PolyLineEdge>
          <y:Path sx="0.0" sy="0.0" tx="0.0" ty="0.0"/>
          <y:LineStyle color="#000000" type="line" width="1.0"/>
          <y:Arrows source="none" target="none"/>
          <y:BendStyle smoothed="false"/>
        </y:PolyLineEdge>
      </data>
    </edge>
    <edge id="e35" source="n6" target="n40">
      <data key="d9"/>
      <data key="d10">
        <y:PolyLineEdge>
          <y:Path sx="0.0" sy="0.0" tx="0.0" ty="0.0"/>
          <y:LineStyle color="#000000" type="line" width="1.0"/>
          <y:Arrows source="none" target="none"/>
          <y:BendStyle smoothed="false"/>
        </y:PolyLineEdge>
      </data>
    </edge>
    <edge id="e36" source="n6" target="n41">
      <data key="d9"/>
      <data key="d10">
        <y:PolyLineEdge>
          <y:Path sx="0.0" sy="0.0" tx="0.0" ty="0.0"/>
          <y:LineStyle color="#000000" type="line" width="1.0"/>
          <y:Arrows source="none" target="none"/>
          <y:BendStyle smoothed="false"/>
        </y:PolyLineEdge>
      </data>
    </edge>
    <edge id="e37" source="n32" target="n40">
      <data key="d9"/>
      <data key="d10">
        <y:PolyLineEdge>
          <y:Path sx="0.0" sy="0.0" tx="0.0" ty="0.0"/>
          <y:LineStyle color="#FF0000" type="line" width="2.0"/>
          <y:Arrows source="none" target="standard"/>
          <y:BendStyle smoothed="false"/>
        </y:PolyLineEdge>
      </data>
    </edge>
    <edge id="e38" source="n40" target="n28">
      <data key="d9"/>
      <data key="d10">
        <y:PolyLineEdge>
          <y:Path sx="0.0" sy="0.0" tx="0.0" ty="0.0"/>
          <y:LineStyle color="#FF0000" type="line" width="2.0"/>
          <y:Arrows source="none" target="standard"/>
          <y:BendStyle smoothed="false"/>
        </y:PolyLineEdge>
      </data>
    </edge>
  </graph>
  <data key="d7">
    <y:Resources/>
  </data>
</graphml>
